<?xml version="1.0" encoding="UTF-8" standalone="no"?>
<svg
   xmlns:dc="http://purl.org/dc/elements/1.1/"
   xmlns:cc="http://creativecommons.org/ns#"
   xmlns:rdf="http://www.w3.org/1999/02/22-rdf-syntax-ns#"
   xmlns:svg="http://www.w3.org/2000/svg"
   xmlns="http://www.w3.org/2000/svg"
   xmlns:sodipodi="http://sodipodi.sourceforge.net/DTD/sodipodi-0.dtd"
   xmlns:inkscape="http://www.inkscape.org/namespaces/inkscape"
   height="2880px"
   version="1.1"
   width="2880px"
   id="svg8209"
   sodipodi:docname="sans.svg"
   inkscape:version="0.92.4 5da689c313, 2019-01-14">
  <metadata
     id="metadata8213">
    <rdf:RDF>
      <cc:Work
         rdf:about="">
        <dc:format>image/svg+xml</dc:format>
        <dc:type
           rdf:resource="http://purl.org/dc/dcmitype/StillImage" />
        <dc:title></dc:title>
      </cc:Work>
    </rdf:RDF>
  </metadata>
  <sodipodi:namedview
     pagecolor="#ffffff"
     bordercolor="#666666"
     borderopacity="1"
     objecttolerance="10"
     gridtolerance="10"
     guidetolerance="10"
     inkscape:pageopacity="0"
     inkscape:pageshadow="2"
     inkscape:window-width="1366"
     inkscape:window-height="711"
     id="namedview8211"
     showgrid="false"
     inkscape:pagecheckerboard="true"
     inkscape:zoom="0.12374369"
     inkscape:cx="2669.239"
     inkscape:cy="1368.696"
     inkscape:window-x="0"
     inkscape:window-y="0"
     inkscape:window-maximized="1"
     inkscape:current-layer="svg8209" />
  <defs
     id="defs143" />
  <path
     id="path12304-3"
     style="fill:#ffffff;stroke:none;stroke-width:1px;stroke-linecap:butt;stroke-linejoin:miter;stroke-opacity:1;fill-opacity:1"
     d="m 1920,1240 h 160 v 160 h -160 z m -1440,0 h 160 v 160 H 480 Z m 1640,1480 h 40 v 40 h -40 z m -40,0 h 40 v 40 h -40 z m -40,0 h 40 v 40 h -40 z m -40,0 h 40 v 40 h -40 z m -40,0 h 40 v 40 h -40 z m -40,0 h 40 v 40 h -40 z m -40,0 h 40 v 40 h -40 z m -40,0 h 40 v 40 h -40 z m -40,0 h 40 v 40 h -40 z m -40,0 h 40 v 40 h -40 z m -40,0 h 40 v 40 h -40 z m -40,0 h 40 v 40 h -40 z m -40,0 h 40 v 40 h -40 z m -40,0 h 40 v 40 h -40 z m -40,0 h 40 v 40 h -40 z m -40,0 h 40 v 40 h -40 z m -40,0 h 40 v 40 h -40 z m -40,0 h 40 v 40 h -40 z m -40,0 h 40 v 40 h -40 z m -40,0 h 40 v 40 h -40 z m -40,0 h 40 v 40 h -40 z m -40,0 h 40 v 40 h -40 z m -40,0 h 40 v 40 h -40 z m -40,0 h 40 v 40 h -40 z m -40,0 h 40 v 40 h -40 z m -40,0 h 40 v 40 h -40 z m -40,0 h 40 v 40 h -40 z m -40,0 h 40 v 40 h -40 z m -40,0 h 40 v 40 h -40 z m -40,0 h 40 v 40 h -40 z m -40,0 h 40 v 40 h -40 z m -40,0 h 40 v 40 h -40 z m -40,0 h 40 v 40 h -40 z m -40,0 h 40 v 40 h -40 z m 1320,-40 h 40 v 40 h -40 z m -40,0 h 40 v 40 h -40 z m -40,0 h 40 v 40 h -40 z m -40,0 h 40 v 40 h -40 z m -40,0 h 40 v 40 h -40 z m -40,0 h 40 v 40 h -40 z m -40,0 h 40 v 40 h -40 z m -40,0 h 40 v 40 h -40 z m -40,0 h 40 v 40 h -40 z m -40,0 h 40 v 40 h -40 z m -40,0 h 40 v 40 h -40 z m -40,0 h 40 v 40 h -40 z m -40,0 h 40 v 40 h -40 z m -40,0 h 40 v 40 h -40 z m -40,0 h 40 v 40 h -40 z m -40,0 h 40 v 40 h -40 z m -40,0 h 40 v 40 h -40 z m -40,0 h 40 v 40 h -40 z m -40,0 h 40 v 40 h -40 z m -40,0 h 40 v 40 h -40 z m -40,0 h 40 v 40 h -40 z m -40,0 h 40 v 40 h -40 z m -40,0 h 40 v 40 h -40 z m -40,0 h 40 v 40 h -40 z m -40,0 h 40 v 40 h -40 z m -40,0 h 40 v 40 h -40 z m -40,0 h 40 v 40 h -40 z m -40,0 h 40 v 40 h -40 z m -40,0 h 40 v 40 h -40 z m -40,0 h 40 v 40 h -40 z m -40,0 h 40 v 40 h -40 z m -40,0 h 40 v 40 h -40 z m -40,0 h 40 v 40 h -40 z m -40,0 h 40 v 40 h -40 z m 1480,-40 h 40 v 40 h -40 z m -40,0 h 40 v 40 h -40 z m -40,0 h 40 v 40 h -40 z m -40,0 h 40 v 40 h -40 z m -40,0 h 40 v 40 h -40 z m -40,0 h 40 v 40 h -40 z m -40,0 h 40 v 40 h -40 z m -40,0 h 40 v 40 h -40 z m -40,0 h 40 v 40 h -40 z m -40,0 h 40 v 40 h -40 z m -40,0 h 40 v 40 h -40 z m -40,0 h 40 v 40 h -40 z m -40,0 h 40 v 40 h -40 z m -40,0 h 40 v 40 h -40 z m -40,0 h 40 v 40 h -40 z m -40,0 h 40 v 40 h -40 z m -40,0 h 40 v 40 h -40 z m -40,0 h 40 v 40 h -40 z m -40,0 h 40 v 40 h -40 z m -40,0 h 40 v 40 h -40 z m -40,0 h 40 v 40 h -40 z m -40,0 h 40 v 40 h -40 z m -40,0 h 40 v 40 h -40 z m -40,0 h 40 v 40 h -40 z m -40,0 h 40 v 40 h -40 z m -40,0 h 40 v 40 h -40 z m -40,0 h 40 v 40 h -40 z m -40,0 h 40 v 40 h -40 z m -40,0 h 40 v 40 h -40 z m -40,0 h 40 v 40 h -40 z m -40,0 h 40 v 40 h -40 z m -40,0 h 40 v 40 h -40 z m -40,0 h 40 v 40 h -40 z m -40,0 h 40 v 40 h -40 z m -40,0 h 40 v 40 h -40 z m -40,0 h 40 v 40 h -40 z m -40,0 h 40 v 40 h -40 z m -40,0 h 40 v 40 h -40 z m -40,0 h 40 v 40 h -40 z m -40,0 h 40 v 40 h -40 z m -40,0 h 40 v 40 h -40 z m -40,0 h 40 v 40 h -40 z m -40,0 h 40 v 40 h -40 z m -40,0 h 40 v 40 h -40 z m 1720,-40 h 40 v 40 h -40 z m -40,0 h 40 v 40 h -40 z m -40,0 h 40 v 40 h -40 z m -40,0 h 40 v 40 h -40 z m -40,0 h 40 v 40 h -40 z m -40,0 h 40 v 40 h -40 z m -40,0 h 40 v 40 h -40 z m -40,0 h 40 v 40 h -40 z m -40,0 h 40 v 40 h -40 z m -40,0 h 40 v 40 h -40 z m -40,0 h 40 v 40 h -40 z m -40,0 h 40 v 40 h -40 z m -40,0 h 40 v 40 h -40 z m -40,0 h 40 v 40 h -40 z m -40,0 h 40 v 40 h -40 z m -40,0 h 40 v 40 h -40 z m -40,0 h 40 v 40 h -40 z m -40,0 h 40 v 40 h -40 z m -40,0 h 40 v 40 h -40 z m -40,0 h 40 v 40 h -40 z m -40,0 h 40 v 40 h -40 z m -40,0 h 40 v 40 h -40 z m -40,0 h 40 v 40 h -40 z m -40,0 h 40 v 40 h -40 z m -40,0 h 40 v 40 h -40 z m -40,0 h 40 v 40 h -40 z m -40,0 h 40 v 40 h -40 z m -40,0 h 40 v 40 h -40 z m -40,0 h 40 v 40 h -40 z m -40,0 h 40 v 40 h -40 z m -40,0 h 40 v 40 h -40 z m -40,0 h 40 v 40 h -40 z m -40,0 h 40 v 40 h -40 z m -40,0 h 40 v 40 h -40 z m -40,0 h 40 v 40 h -40 z m -40,0 h 40 v 40 h -40 z m -40,0 h 40 v 40 h -40 z m -40,0 h 40 v 40 h -40 z m -40,0 h 40 v 40 h -40 z m -40,0 h 40 v 40 h -40 z m -40,0 h 40 v 40 h -40 z m -40,0 h 40 v 40 h -40 z m -40,0 h 40 v 40 h -40 z m -40,0 h 40 v 40 h -40 z m 1880,-40 h 40 v 40 h -40 z m -40,0 h 40 v 40 h -40 z m -40,0 h 40 v 40 h -40 z m -40,0 h 40 v 40 h -40 z m -40,0 h 40 v 40 h -40 z m -40,0 h 40 v 40 h -40 z m -40,0 h 40 v 40 h -40 z m -40,0 h 40 v 40 h -40 z m -40,0 h 40 v 40 h -40 z m -40,0 h 40 v 40 h -40 z m -40,0 h 40 v 40 h -40 z m -40,0 h 40 v 40 h -40 z m -40,0 h 40 v 40 h -40 z m -40,0 h 40 v 40 h -40 z m -40,0 h 40 v 40 h -40 z m -40,0 h 40 v 40 h -40 z m -40,0 h 40 v 40 h -40 z m -40,0 h 40 v 40 h -40 z m -40,0 h 40 v 40 h -40 z m -40,0 h 40 v 40 h -40 z m -40,0 h 40 v 40 h -40 z m -40,0 h 40 v 40 h -40 z m -40,0 h 40 v 40 h -40 z m -40,0 h 40 v 40 h -40 z m -40,0 h 40 v 40 h -40 z m -40,0 h 40 v 40 h -40 z m -40,0 h 40 v 40 h -40 z m -40,0 h 40 v 40 h -40 z m -40,0 h 40 v 40 h -40 z m -40,0 h 40 v 40 h -40 z m -40,0 h 40 v 40 h -40 z m -40,0 h 40 v 40 h -40 z m -40,0 h 40 v 40 h -40 z m -40,0 h 40 v 40 h -40 z m -40,0 h 40 v 40 h -40 z m -40,0 h 40 v 40 h -40 z m -40,0 h 40 v 40 h -40 z m -40,0 h 40 v 40 h -40 z m -40,0 h 40 v 40 h -40 z m -40,0 h 40 v 40 h -40 z m -40,0 h 40 v 40 h -40 z m -40,0 h 40 v 40 h -40 z m -40,0 h 40 v 40 h -40 z m -40,0 h 40 v 40 h -40 z m -40,0 h 40 v 40 h -40 z m -40,0 h 40 v 40 h -40 z m -40,0 h 40 v 40 h -40 z m -40,0 h 40 v 40 h -40 z m -40,0 h 40 v 40 h -40 z m -40,0 h 40 v 40 h -40 z m -40,0 h 40 v 40 h -40 z m -40,0 h 40 v 40 h -40 z m 2040,-40 h 40 v 40 h -40 z m -40,0 h 40 v 40 h -40 z m -40,0 h 40 v 40 h -40 z m -40,0 h 40 v 40 h -40 z m -40,0 h 40 v 40 h -40 z m -40,0 h 40 v 40 h -40 z m -40,0 h 40 v 40 h -40 z m -40,0 h 40 v 40 h -40 z m -40,0 h 40 v 40 h -40 z m -40,0 h 40 v 40 h -40 z m -40,0 h 40 v 40 h -40 z m -40,0 h 40 v 40 h -40 z m -40,0 h 40 v 40 h -40 z m -40,0 h 40 v 40 h -40 z m -40,0 h 40 v 40 h -40 z m -40,0 h 40 v 40 h -40 z m -40,0 h 40 v 40 h -40 z m -40,0 h 40 v 40 h -40 z m -40,0 h 40 v 40 h -40 z m -40,0 h 40 v 40 h -40 z m -40,0 h 40 v 40 h -40 z m -40,0 h 40 v 40 h -40 z m -40,0 h 40 v 40 h -40 z m -40,0 h 40 v 40 h -40 z m -40,0 h 40 v 40 h -40 z m -40,0 h 40 v 40 h -40 z m -40,0 h 40 v 40 h -40 z m -40,0 h 40 v 40 h -40 z m -40,0 h 40 v 40 h -40 z m -40,0 h 40 v 40 h -40 z m -40,0 h 40 v 40 h -40 z m -40,0 h 40 v 40 h -40 z m -40,0 h 40 v 40 h -40 z m -40,0 h 40 v 40 h -40 z m -40,0 h 40 v 40 h -40 z m -40,0 h 40 v 40 h -40 z m -40,0 h 40 v 40 h -40 z m -40,0 h 40 v 40 h -40 z m -40,0 h 40 v 40 h -40 z m -40,0 h 40 v 40 h -40 z m -40,0 h 40 v 40 h -40 z m -40,0 h 40 v 40 h -40 z m -40,0 h 40 v 40 h -40 z m -40,0 h 40 v 40 h -40 z m -40,0 h 40 v 40 h -40 z m -40,0 h 40 v 40 h -40 z m -40,0 h 40 v 40 h -40 z m -40,0 h 40 v 40 h -40 z m -40,0 h 40 v 40 h -40 z m -40,0 h 40 v 40 h -40 z m -40,0 h 40 v 40 h -40 z m -40,0 h 40 v 40 h -40 z m 2200,-40 h 40 v 40 h -40 z m -40,0 h 40 v 40 h -40 z m -40,0 h 40 v 40 h -40 z m -40,0 h 40 v 40 h -40 z m -40,0 h 40 v 40 h -40 z m -40,0 h 40 v 40 h -40 z m -40,0 h 40 v 40 h -40 z m -40,0 h 40 v 40 h -40 z m -40,0 h 40 v 40 h -40 z m -40,0 h 40 v 40 h -40 z m -40,0 h 40 v 40 h -40 z m -40,0 h 40 v 40 h -40 z m -40,0 h 40 v 40 h -40 z m -40,0 h 40 v 40 h -40 z m -40,0 h 40 v 40 h -40 z m -40,0 h 40 v 40 h -40 z m -1080,0 h 40 v 40 h -40 z m -40,0 h 40 v 40 h -40 z m -40,0 h 40 v 40 h -40 z m -40,0 h 40 v 40 h -40 z m -40,0 h 40 v 40 h -40 z m -40,0 h 40 v 40 h -40 z m -40,0 h 40 v 40 h -40 z m -40,0 h 40 v 40 h -40 z m -40,0 h 40 v 40 h -40 z m -40,0 h 40 v 40 h -40 z m -40,0 h 40 v 40 h -40 z m -40,0 h 40 v 40 h -40 z m -40,0 h 40 v 40 h -40 z m -40,0 h 40 v 40 h -40 z m -40,0 h 40 v 40 h -40 z m -40,0 h 40 v 40 h -40 z m 2280,-40 h 40 v 40 h -40 z m -40,0 h 40 v 40 h -40 z m -40,0 h 40 v 40 h -40 z m -40,0 h 40 v 40 h -40 z m -40,0 h 40 v 40 h -40 z m -40,0 h 40 v 40 h -40 z m -40,0 h 40 v 40 h -40 z m -40,0 h 40 v 40 h -40 z m -40,0 h 40 v 40 h -40 z m -40,0 h 40 v 40 h -40 z m -40,0 h 40 v 40 h -40 z m -40,0 h 40 v 40 h -40 z m -40,0 h 40 v 40 h -40 z m -40,0 h 40 v 40 h -40 z m -40,0 h 40 v 40 h -40 z m -40,0 h 40 v 40 h -40 z m -1080,0 h 40 v 40 h -40 z m -40,0 h 40 v 40 h -40 z m -40,0 h 40 v 40 h -40 z m -40,0 h 40 v 40 h -40 z m -40,0 h 40 v 40 h -40 z m -40,0 h 40 v 40 h -40 z m -40,0 h 40 v 40 h -40 z m -40,0 h 40 v 40 h -40 z m -40,0 h 40 v 40 h -40 z m -40,0 h 40 v 40 h -40 z m -40,0 h 40 v 40 h -40 z m -40,0 h 40 v 40 h -40 z m -40,0 h 40 v 40 h -40 z m -40,0 h 40 v 40 h -40 z m -40,0 h 40 v 40 h -40 z m -40,0 h 40 v 40 h -40 z m 2360,-40 h 40 v 40 h -40 z m -40,0 h 40 v 40 h -40 z m -40,0 h 40 v 40 h -40 z m -40,0 h 40 v 40 h -40 z m -40,0 h 40 v 40 h -40 z m -40,0 h 40 v 40 h -40 z m -40,0 h 40 v 40 h -40 z m -40,0 h 40 v 40 h -40 z m -40,0 h 40 v 40 h -40 z m -40,0 h 40 v 40 h -40 z m -40,0 h 40 v 40 h -40 z m -40,0 h 40 v 40 h -40 z m -40,0 h 40 v 40 h -40 z m -40,0 h 40 v 40 h -40 z m -40,0 h 40 v 40 h -40 z m -40,0 h 40 v 40 h -40 z m -120,0 h 40 v 40 h -40 z m -40,0 h 40 v 40 h -40 z m -40,0 h 40 v 40 h -40 z m -40,0 h 40 v 40 h -40 z m -120,0 h 40 v 40 h -40 z m -40,0 h 40 v 40 h -40 z m -40,0 h 40 v 40 h -40 z m -40,0 h 40 v 40 h -40 z m -40,0 h 40 v 40 h -40 z m -40,0 h 40 v 40 h -40 z m -120,0 h 40 v 40 h -40 z m -40,0 h 40 v 40 h -40 z m -40,0 h 40 v 40 h -40 z m -40,0 h 40 v 40 h -40 z m -40,0 h 40 v 40 h -40 z m -40,0 h 40 v 40 h -40 z m -120,0 h 40 v 40 h -40 z m -40,0 h 40 v 40 h -40 z m -40,0 h 40 v 40 h -40 z m -40,0 h 40 v 40 h -40 z m -120,0 h 40 v 40 h -40 z m -40,0 h 40 v 40 h -40 z m -40,0 h 40 v 40 h -40 z m -40,0 h 40 v 40 h -40 z m -40,0 h 40 v 40 h -40 z m -40,0 h 40 v 40 h -40 z m -40,0 h 40 v 40 h -40 z m -40,0 h 40 v 40 h -40 z m -40,0 h 40 v 40 h -40 z m -40,0 h 40 v 40 h -40 z m -40,0 h 40 v 40 h -40 z m -40,0 h 40 v 40 h -40 z m -40,0 h 40 v 40 h -40 z m -40,0 h 40 v 40 h -40 z m -40,0 h 40 v 40 h -40 z m -40,0 h 40 v 40 h -40 z m 2440,-40 h 40 v 40 h -40 z m -40,0 h 40 v 40 h -40 z m -40,0 h 40 v 40 h -40 z m -40,0 h 40 v 40 h -40 z m -40,0 h 40 v 40 h -40 z m -40,0 h 40 v 40 h -40 z m -40,0 h 40 v 40 h -40 z m -40,0 h 40 v 40 h -40 z m -40,0 h 40 v 40 h -40 z m -40,0 h 40 v 40 h -40 z m -40,0 h 40 v 40 h -40 z m -40,0 h 40 v 40 h -40 z m -40,0 h 40 v 40 h -40 z m -40,0 h 40 v 40 h -40 z m -40,0 h 40 v 40 h -40 z m -40,0 h 40 v 40 h -40 z m -120,0 h 40 v 40 h -40 z m -40,0 h 40 v 40 h -40 z m -40,0 h 40 v 40 h -40 z m -40,0 h 40 v 40 h -40 z m -120,0 h 40 v 40 h -40 z m -40,0 h 40 v 40 h -40 z m -40,0 h 40 v 40 h -40 z m -40,0 h 40 v 40 h -40 z m -40,0 h 40 v 40 h -40 z m -40,0 h 40 v 40 h -40 z m -120,0 h 40 v 40 h -40 z m -40,0 h 40 v 40 h -40 z m -40,0 h 40 v 40 h -40 z m -40,0 h 40 v 40 h -40 z m -40,0 h 40 v 40 h -40 z m -40,0 h 40 v 40 h -40 z m -120,0 h 40 v 40 h -40 z m -40,0 h 40 v 40 h -40 z m -40,0 h 40 v 40 h -40 z m -40,0 h 40 v 40 h -40 z m -120,0 h 40 v 40 h -40 z m -40,0 h 40 v 40 h -40 z m -40,0 h 40 v 40 h -40 z m -40,0 h 40 v 40 h -40 z m -40,0 h 40 v 40 h -40 z m -40,0 h 40 v 40 h -40 z m -40,0 h 40 v 40 h -40 z m -40,0 h 40 v 40 h -40 z m -40,0 h 40 v 40 h -40 z m -40,0 h 40 v 40 h -40 z m -40,0 h 40 v 40 h -40 z m -40,0 h 40 v 40 h -40 z m -40,0 h 40 v 40 h -40 z m -40,0 h 40 v 40 h -40 z m -40,0 h 40 v 40 h -40 z m -40,0 h 40 v 40 h -40 z m 2440,-40 h 40 v 40 h -40 z m -40,0 h 40 v 40 h -40 z m -40,0 h 40 v 40 h -40 z m -40,0 h 40 v 40 h -40 z m -40,0 h 40 v 40 h -40 z m -40,0 h 40 v 40 h -40 z m -40,0 h 40 v 40 h -40 z m -40,0 h 40 v 40 h -40 z m -40,0 h 40 v 40 h -40 z m -40,0 h 40 v 40 h -40 z m -40,0 h 40 v 40 h -40 z m -40,0 h 40 v 40 h -40 z m -40,0 h 40 v 40 h -40 z m -40,0 h 40 v 40 h -40 z m -200,0 h 40 v 40 h -40 z m -40,0 h 40 v 40 h -40 z m -40,0 h 40 v 40 h -40 z m -40,0 h 40 v 40 h -40 z m -120,0 h 40 v 40 h -40 z m -40,0 h 40 v 40 h -40 z m -40,0 h 40 v 40 h -40 z m -40,0 h 40 v 40 h -40 z m -40,0 h 40 v 40 h -40 z m -40,0 h 40 v 40 h -40 z m -120,0 h 40 v 40 h -40 z m -40,0 h 40 v 40 h -40 z m -40,0 h 40 v 40 h -40 z m -40,0 h 40 v 40 h -40 z m -40,0 h 40 v 40 h -40 z m -40,0 h 40 v 40 h -40 z m -120,0 h 40 v 40 h -40 z m -40,0 h 40 v 40 h -40 z m -40,0 h 40 v 40 h -40 z m -40,0 h 40 v 40 h -40 z m -200,0 h 40 v 40 h -40 z m -40,0 h 40 v 40 h -40 z m -40,0 h 40 v 40 h -40 z m -40,0 h 40 v 40 h -40 z m -40,0 h 40 v 40 h -40 z m -40,0 h 40 v 40 h -40 z m -40,0 h 40 v 40 h -40 z m -40,0 h 40 v 40 h -40 z m -40,0 h 40 v 40 h -40 z m -40,0 h 40 v 40 h -40 z m -40,0 h 40 v 40 h -40 z m -40,0 h 40 v 40 h -40 z m -40,0 h 40 v 40 h -40 z m -40,0 h 40 v 40 h -40 z m -40,0 h 40 v 40 h -40 z m -40,0 h 40 v 40 h -40 z m 2520,-40 h 40 v 40 h -40 z m -40,0 h 40 v 40 h -40 z m -40,0 h 40 v 40 h -40 z m -40,0 h 40 v 40 h -40 z m -40,0 h 40 v 40 h -40 z m -40,0 h 40 v 40 h -40 z m -40,0 h 40 v 40 h -40 z m -40,0 h 40 v 40 h -40 z m -40,0 h 40 v 40 h -40 z m -40,0 h 40 v 40 h -40 z m -40,0 h 40 v 40 h -40 z m -40,0 h 40 v 40 h -40 z m -40,0 h 40 v 40 h -40 z m -40,0 h 40 v 40 h -40 z m -200,0 h 40 v 40 h -40 z m -40,0 h 40 v 40 h -40 z m -40,0 h 40 v 40 h -40 z m -40,0 h 40 v 40 h -40 z m -120,0 h 40 v 40 h -40 z m -40,0 h 40 v 40 h -40 z m -40,0 h 40 v 40 h -40 z m -40,0 h 40 v 40 h -40 z m -40,0 h 40 v 40 h -40 z m -40,0 h 40 v 40 h -40 z m -120,0 h 40 v 40 h -40 z m -40,0 h 40 v 40 h -40 z m -40,0 h 40 v 40 h -40 z m -40,0 h 40 v 40 h -40 z m -40,0 h 40 v 40 h -40 z m -40,0 h 40 v 40 h -40 z m -120,0 h 40 v 40 h -40 z m -40,0 h 40 v 40 h -40 z m -40,0 h 40 v 40 h -40 z m -40,0 h 40 v 40 h -40 z m -200,0 h 40 v 40 h -40 z m -40,0 h 40 v 40 h -40 z m -40,0 h 40 v 40 h -40 z m -40,0 h 40 v 40 h -40 z m -40,0 h 40 v 40 h -40 z m -40,0 h 40 v 40 h -40 z m -40,0 h 40 v 40 h -40 z m -40,0 h 40 v 40 h -40 z m -40,0 h 40 v 40 h -40 z m -40,0 h 40 v 40 h -40 z m -40,0 h 40 v 40 h -40 z m -40,0 h 40 v 40 h -40 z m -40,0 h 40 v 40 h -40 z m -40,0 h 40 v 40 h -40 z m -40,0 h 40 v 40 h -40 z m -40,0 h 40 v 40 h -40 z m 2600,-40 h 40 v 40 h -40 z m -40,0 h 40 v 40 h -40 z m -40,0 h 40 v 40 h -40 z m -40,0 h 40 v 40 h -40 z m -40,0 h 40 v 40 h -40 z m -40,0 h 40 v 40 h -40 z m -40,0 h 40 v 40 h -40 z m -40,0 h 40 v 40 h -40 z m -40,0 h 40 v 40 h -40 z m -40,0 h 40 v 40 h -40 z m -40,0 h 40 v 40 h -40 z m -40,0 h 40 v 40 h -40 z m -40,0 h 40 v 40 h -40 z m -40,0 h 40 v 40 h -40 z m -120,0 h 40 v 40 h -40 z m -40,0 h 40 v 40 h -40 z m -120,0 h 40 v 40 h -40 z m -40,0 h 40 v 40 h -40 z m -40,0 h 40 v 40 h -40 z m -40,0 h 40 v 40 h -40 z m -120,0 h 40 v 40 h -40 z m -40,0 h 40 v 40 h -40 z m -40,0 h 40 v 40 h -40 z m -40,0 h 40 v 40 h -40 z m -40,0 h 40 v 40 h -40 z m -40,0 h 40 v 40 h -40 z m -120,0 h 40 v 40 h -40 z m -40,0 h 40 v 40 h -40 z m -40,0 h 40 v 40 h -40 z m -40,0 h 40 v 40 h -40 z m -40,0 h 40 v 40 h -40 z m -40,0 h 40 v 40 h -40 z m -120,0 h 40 v 40 h -40 z m -40,0 h 40 v 40 h -40 z m -40,0 h 40 v 40 h -40 z m -40,0 h 40 v 40 h -40 z m -120,0 h 40 v 40 h -40 z m -40,0 h 40 v 40 h -40 z m -120,0 h 40 v 40 h -40 z m -40,0 h 40 v 40 h -40 z m -40,0 h 40 v 40 h -40 z m -40,0 h 40 v 40 h -40 z m -40,0 h 40 v 40 h -40 z m -40,0 h 40 v 40 h -40 z m -40,0 h 40 v 40 h -40 z m -40,0 h 40 v 40 h -40 z m -40,0 h 40 v 40 h -40 z m -40,0 h 40 v 40 h -40 z m -40,0 h 40 v 40 h -40 z m -40,0 h 40 v 40 h -40 z m -40,0 h 40 v 40 h -40 z m -40,0 h 40 v 40 h -40 z m 2600,-40 h 40 v 40 h -40 z m -40,0 h 40 v 40 h -40 z m -40,0 h 40 v 40 h -40 z m -40,0 h 40 v 40 h -40 z m -40,0 h 40 v 40 h -40 z m -40,0 h 40 v 40 h -40 z m -40,0 h 40 v 40 h -40 z m -40,0 h 40 v 40 h -40 z m -40,0 h 40 v 40 h -40 z m -40,0 h 40 v 40 h -40 z m -40,0 h 40 v 40 h -40 z m -40,0 h 40 v 40 h -40 z m -40,0 h 40 v 40 h -40 z m -40,0 h 40 v 40 h -40 z m -120,0 h 40 v 40 h -40 z m -40,0 h 40 v 40 h -40 z m -120,0 h 40 v 40 h -40 z m -40,0 h 40 v 40 h -40 z m -40,0 h 40 v 40 h -40 z m -40,0 h 40 v 40 h -40 z m -120,0 h 40 v 40 h -40 z m -40,0 h 40 v 40 h -40 z m -40,0 h 40 v 40 h -40 z m -40,0 h 40 v 40 h -40 z m -40,0 h 40 v 40 h -40 z m -40,0 h 40 v 40 h -40 z m -120,0 h 40 v 40 h -40 z m -40,0 h 40 v 40 h -40 z m -40,0 h 40 v 40 h -40 z m -40,0 h 40 v 40 h -40 z m -40,0 h 40 v 40 h -40 z m -40,0 h 40 v 40 h -40 z m -120,0 h 40 v 40 h -40 z m -40,0 h 40 v 40 h -40 z m -40,0 h 40 v 40 h -40 z m -40,0 h 40 v 40 h -40 z m -120,0 h 40 v 40 h -40 z m -40,0 h 40 v 40 h -40 z m -120,0 h 40 v 40 h -40 z m -40,0 h 40 v 40 h -40 z m -40,0 h 40 v 40 h -40 z m -40,0 h 40 v 40 h -40 z m -40,0 h 40 v 40 h -40 z m -40,0 h 40 v 40 h -40 z m -40,0 h 40 v 40 h -40 z m -40,0 h 40 v 40 h -40 z m -40,0 h 40 v 40 h -40 z m -40,0 h 40 v 40 h -40 z m -40,0 h 40 v 40 h -40 z m -40,0 h 40 v 40 h -40 z m -40,0 h 40 v 40 h -40 z m -40,0 h 40 v 40 h -40 z m 2600,-40 h 40 v 40 h -40 z m -40,0 h 40 v 40 h -40 z m -40,0 h 40 v 40 h -40 z m -40,0 h 40 v 40 h -40 z m -40,0 h 40 v 40 h -40 z m -40,0 h 40 v 40 h -40 z m -40,0 h 40 v 40 h -40 z m -40,0 h 40 v 40 h -40 z m -40,0 h 40 v 40 h -40 z m -40,0 h 40 v 40 h -40 z m -40,0 h 40 v 40 h -40 z m -40,0 h 40 v 40 h -40 z m -120,0 h 40 v 40 h -40 z m -40,0 h 40 v 40 h -40 z m -1320,0 h 40 v 40 h -40 z m -40,0 h 40 v 40 h -40 z m -200,0 h 40 v 40 h -40 z m -40,0 h 40 v 40 h -40 z m -40,0 h 40 v 40 h -40 z m -40,0 h 40 v 40 h -40 z m -40,0 h 40 v 40 h -40 z m -40,0 h 40 v 40 h -40 z m -40,0 h 40 v 40 h -40 z m -40,0 h 40 v 40 h -40 z m -40,0 h 40 v 40 h -40 z m -40,0 h 40 v 40 h -40 z m -40,0 h 40 v 40 h -40 z m -40,0 h 40 v 40 h -40 z m 2600,-40 h 40 v 40 h -40 z m -40,0 h 40 v 40 h -40 z m -40,0 h 40 v 40 h -40 z m -40,0 h 40 v 40 h -40 z m -40,0 h 40 v 40 h -40 z m -40,0 h 40 v 40 h -40 z m -40,0 h 40 v 40 h -40 z m -40,0 h 40 v 40 h -40 z m -40,0 h 40 v 40 h -40 z m -40,0 h 40 v 40 h -40 z m -40,0 h 40 v 40 h -40 z m -40,0 h 40 v 40 h -40 z m -120,0 h 40 v 40 h -40 z m -40,0 h 40 v 40 h -40 z m -1320,0 h 40 v 40 h -40 z m -40,0 h 40 v 40 h -40 z m -200,0 h 40 v 40 h -40 z m -40,0 h 40 v 40 h -40 z m -40,0 h 40 v 40 h -40 z m -40,0 h 40 v 40 h -40 z m -40,0 h 40 v 40 h -40 z m -40,0 h 40 v 40 h -40 z m -40,0 h 40 v 40 h -40 z m -40,0 h 40 v 40 h -40 z m -40,0 h 40 v 40 h -40 z m -40,0 h 40 v 40 h -40 z m -40,0 h 40 v 40 h -40 z m -40,0 h 40 v 40 h -40 z m 2600,-40 h 40 v 40 h -40 z m -40,0 h 40 v 40 h -40 z m -40,0 h 40 v 40 h -40 z m -40,0 h 40 v 40 h -40 z m -40,0 h 40 v 40 h -40 z m -40,0 h 40 v 40 h -40 z m -40,0 h 40 v 40 h -40 z m -40,0 h 40 v 40 h -40 z m -360,0 h 40 v 40 h -40 z m -40,0 h 40 v 40 h -40 z m -40,0 h 40 v 40 h -40 z m -40,0 h 40 v 40 h -40 z m -40,0 h 40 v 40 h -40 z m -40,0 h 40 v 40 h -40 z m -40,0 h 40 v 40 h -40 z m -40,0 h 40 v 40 h -40 z m -40,0 h 40 v 40 h -40 z m -40,0 h 40 v 40 h -40 z m -40,0 h 40 v 40 h -40 z m -40,0 h 40 v 40 h -40 z m -40,0 h 40 v 40 h -40 z m -40,0 h 40 v 40 h -40 z m -40,0 h 40 v 40 h -40 z m -40,0 h 40 v 40 h -40 z m -40,0 h 40 v 40 h -40 z m -40,0 h 40 v 40 h -40 z m -40,0 h 40 v 40 h -40 z m -40,0 h 40 v 40 h -40 z m -40,0 h 40 v 40 h -40 z m -40,0 h 40 v 40 h -40 z m -40,0 h 40 v 40 h -40 z m -40,0 h 40 v 40 h -40 z m -40,0 h 40 v 40 h -40 z m -40,0 h 40 v 40 h -40 z m -40,0 h 40 v 40 h -40 z m -40,0 h 40 v 40 h -40 z m -40,0 h 40 v 40 h -40 z m -40,0 h 40 v 40 h -40 z m -40,0 h 40 v 40 h -40 z m -40,0 h 40 v 40 h -40 z m -200,0 h 40 v 40 h -40 z m -40,0 h 40 v 40 h -40 z m -120,0 h 40 v 40 h -40 z m -40,0 h 40 v 40 h -40 z m -200,0 h 40 v 40 h -40 z m -40,0 h 40 v 40 h -40 z m -40,0 h 40 v 40 h -40 z m -40,0 h 40 v 40 h -40 z m 2600,-40 h 40 v 40 h -40 z m -40,0 h 40 v 40 h -40 z m -40,0 h 40 v 40 h -40 z m -40,0 h 40 v 40 h -40 z m -40,0 h 40 v 40 h -40 z m -40,0 h 40 v 40 h -40 z m -40,0 h 40 v 40 h -40 z m -40,0 h 40 v 40 h -40 z m -360,0 h 40 v 40 h -40 z m -40,0 h 40 v 40 h -40 z m -40,0 h 40 v 40 h -40 z m -40,0 h 40 v 40 h -40 z m -40,0 h 40 v 40 h -40 z m -40,0 h 40 v 40 h -40 z m -40,0 h 40 v 40 h -40 z m -40,0 h 40 v 40 h -40 z m -40,0 h 40 v 40 h -40 z m -40,0 h 40 v 40 h -40 z m -40,0 h 40 v 40 h -40 z m -40,0 h 40 v 40 h -40 z m -40,0 h 40 v 40 h -40 z m -40,0 h 40 v 40 h -40 z m -40,0 h 40 v 40 h -40 z m -40,0 h 40 v 40 h -40 z m -40,0 h 40 v 40 h -40 z m -40,0 h 40 v 40 h -40 z m -40,0 h 40 v 40 h -40 z m -40,0 h 40 v 40 h -40 z m -40,0 h 40 v 40 h -40 z m -40,0 h 40 v 40 h -40 z m -40,0 h 40 v 40 h -40 z m -40,0 h 40 v 40 h -40 z m -40,0 h 40 v 40 h -40 z m -40,0 h 40 v 40 h -40 z m -40,0 h 40 v 40 h -40 z m -40,0 h 40 v 40 h -40 z m -40,0 h 40 v 40 h -40 z m -40,0 h 40 v 40 h -40 z m -40,0 h 40 v 40 h -40 z m -40,0 h 40 v 40 h -40 z m -200,0 h 40 v 40 h -40 z m -40,0 h 40 v 40 h -40 z m -120,0 h 40 v 40 h -40 z m -40,0 h 40 v 40 h -40 z m -200,0 h 40 v 40 h -40 z m -40,0 h 40 v 40 h -40 z m -40,0 h 40 v 40 h -40 z m -40,0 h 40 v 40 h -40 z m 2600,-40 h 40 v 40 h -40 z m -40,0 h 40 v 40 h -40 z m -40,0 h 40 v 40 h -40 z m -40,0 h 40 v 40 h -40 z m -40,0 h 40 v 40 h -40 z m -40,0 h 40 v 40 h -40 z m -40,0 h 40 v 40 h -40 z m -40,0 h 40 v 40 h -40 z m -40,0 h 40 v 40 h -40 z m -40,0 h 40 v 40 h -40 z m -40,0 h 40 v 40 h -40 z m -40,0 h 40 v 40 h -40 z m -120,0 h 40 v 40 h -40 z m -40,0 h 40 v 40 h -40 z m -40,0 h 40 v 40 h -40 z m -40,0 h 40 v 40 h -40 z m -40,0 h 40 v 40 h -40 z m -40,0 h 40 v 40 h -40 z m -40,0 h 40 v 40 h -40 z m -40,0 h 40 v 40 h -40 z m -40,0 h 40 v 40 h -40 z m -40,0 h 40 v 40 h -40 z m -40,0 h 40 v 40 h -40 z m -40,0 h 40 v 40 h -40 z m -40,0 h 40 v 40 h -40 z m -40,0 h 40 v 40 h -40 z m -40,0 h 40 v 40 h -40 z m -40,0 h 40 v 40 h -40 z m -40,0 h 40 v 40 h -40 z m -40,0 h 40 v 40 h -40 z m -40,0 h 40 v 40 h -40 z m -40,0 h 40 v 40 h -40 z m -40,0 h 40 v 40 h -40 z m -40,0 h 40 v 40 h -40 z m -40,0 h 40 v 40 h -40 z m -40,0 h 40 v 40 h -40 z m -40,0 h 40 v 40 h -40 z m -40,0 h 40 v 40 h -40 z m -40,0 h 40 v 40 h -40 z m -40,0 h 40 v 40 h -40 z m -40,0 h 40 v 40 h -40 z m -40,0 h 40 v 40 h -40 z m -40,0 h 40 v 40 h -40 z m -40,0 h 40 v 40 h -40 z m -40,0 h 40 v 40 h -40 z m -40,0 h 40 v 40 h -40 z m -40,0 h 40 v 40 h -40 z m -40,0 h 40 v 40 h -40 z m -40,0 h 40 v 40 h -40 z m -40,0 h 40 v 40 h -40 z m -280,0 h 40 v 40 h -40 z m -40,0 h 40 v 40 h -40 z m -40,0 h 40 v 40 h -40 z m -40,0 h 40 v 40 h -40 z m -40,0 h 40 v 40 h -40 z m -40,0 h 40 v 40 h -40 z m -40,0 h 40 v 40 h -40 z m -40,0 h 40 v 40 h -40 z m 2600,-40 h 40 v 40 h -40 z m -40,0 h 40 v 40 h -40 z m -40,0 h 40 v 40 h -40 z m -40,0 h 40 v 40 h -40 z m -40,0 h 40 v 40 h -40 z m -40,0 h 40 v 40 h -40 z m -40,0 h 40 v 40 h -40 z m -40,0 h 40 v 40 h -40 z m -40,0 h 40 v 40 h -40 z m -40,0 h 40 v 40 h -40 z m -40,0 h 40 v 40 h -40 z m -40,0 h 40 v 40 h -40 z m -120,0 h 40 v 40 h -40 z m -40,0 h 40 v 40 h -40 z m -40,0 h 40 v 40 h -40 z m -40,0 h 40 v 40 h -40 z m -40,0 h 40 v 40 h -40 z m -40,0 h 40 v 40 h -40 z m -40,0 h 40 v 40 h -40 z m -40,0 h 40 v 40 h -40 z m -40,0 h 40 v 40 h -40 z m -40,0 h 40 v 40 h -40 z m -40,0 h 40 v 40 h -40 z m -40,0 h 40 v 40 h -40 z m -40,0 h 40 v 40 h -40 z m -40,0 h 40 v 40 h -40 z m -40,0 h 40 v 40 h -40 z m -40,0 h 40 v 40 h -40 z m -40,0 h 40 v 40 h -40 z m -40,0 h 40 v 40 h -40 z m -40,0 h 40 v 40 h -40 z m -40,0 h 40 v 40 h -40 z m -40,0 h 40 v 40 h -40 z m -40,0 h 40 v 40 h -40 z m -40,0 h 40 v 40 h -40 z m -40,0 h 40 v 40 h -40 z m -40,0 h 40 v 40 h -40 z m -40,0 h 40 v 40 h -40 z m -40,0 h 40 v 40 h -40 z m -40,0 h 40 v 40 h -40 z m -40,0 h 40 v 40 h -40 z m -40,0 h 40 v 40 h -40 z m -40,0 h 40 v 40 h -40 z m -40,0 h 40 v 40 h -40 z m -40,0 h 40 v 40 h -40 z m -40,0 h 40 v 40 h -40 z m -40,0 h 40 v 40 h -40 z m -40,0 h 40 v 40 h -40 z m -40,0 h 40 v 40 h -40 z m -40,0 h 40 v 40 h -40 z m -280,0 h 40 v 40 h -40 z m -40,0 h 40 v 40 h -40 z m -40,0 h 40 v 40 h -40 z m -40,0 h 40 v 40 h -40 z m -40,0 h 40 v 40 h -40 z m -40,0 h 40 v 40 h -40 z m -40,0 h 40 v 40 h -40 z m -40,0 h 40 v 40 h -40 z m 2600,-40 h 40 v 40 h -40 z m -40,0 h 40 v 40 h -40 z m -40,0 h 40 v 40 h -40 z m -40,0 h 40 v 40 h -40 z m -40,0 h 40 v 40 h -40 z m -40,0 h 40 v 40 h -40 z m -40,0 h 40 v 40 h -40 z m -40,0 h 40 v 40 h -40 z m -40,0 h 40 v 40 h -40 z m -40,0 h 40 v 40 h -40 z m -40,0 h 40 v 40 h -40 z m -40,0 h 40 v 40 h -40 z m -120,0 h 40 v 40 h -40 z m -40,0 h 40 v 40 h -40 z m -40,0 h 40 v 40 h -40 z m -40,0 h 40 v 40 h -40 z m -40,0 h 40 v 40 h -40 z m -40,0 h 40 v 40 h -40 z m -40,0 h 40 v 40 h -40 z m -40,0 h 40 v 40 h -40 z m -40,0 h 40 v 40 h -40 z m -40,0 h 40 v 40 h -40 z m -40,0 h 40 v 40 h -40 z m -40,0 h 40 v 40 h -40 z m -40,0 h 40 v 40 h -40 z m -40,0 h 40 v 40 h -40 z m -40,0 h 40 v 40 h -40 z m -40,0 h 40 v 40 h -40 z m -40,0 h 40 v 40 h -40 z m -40,0 h 40 v 40 h -40 z m -40,0 h 40 v 40 h -40 z m -40,0 h 40 v 40 h -40 z m -40,0 h 40 v 40 h -40 z m -40,0 h 40 v 40 h -40 z m -40,0 h 40 v 40 h -40 z m -40,0 h 40 v 40 h -40 z m -40,0 h 40 v 40 h -40 z m -40,0 h 40 v 40 h -40 z m -40,0 h 40 v 40 h -40 z m -40,0 h 40 v 40 h -40 z m -40,0 h 40 v 40 h -40 z m -40,0 h 40 v 40 h -40 z m -40,0 h 40 v 40 h -40 z m -40,0 h 40 v 40 h -40 z m -40,0 h 40 v 40 h -40 z m -40,0 h 40 v 40 h -40 z m -40,0 h 40 v 40 h -40 z m -40,0 h 40 v 40 h -40 z m -40,0 h 40 v 40 h -40 z m -40,0 h 40 v 40 h -40 z m -40,0 h 40 v 40 h -40 z m -40,0 h 40 v 40 h -40 z m -120,0 h 40 v 40 h -40 z m -40,0 h 40 v 40 h -40 z m -40,0 h 40 v 40 h -40 z m -40,0 h 40 v 40 h -40 z m -40,0 h 40 v 40 h -40 z m -40,0 h 40 v 40 h -40 z m -40,0 h 40 v 40 h -40 z m -40,0 h 40 v 40 h -40 z m -40,0 h 40 v 40 h -40 z m -40,0 h 40 v 40 h -40 z m 2600,-40 h 40 v 40 h -40 z m -40,0 h 40 v 40 h -40 z m -40,0 h 40 v 40 h -40 z m -40,0 h 40 v 40 h -40 z m -40,0 h 40 v 40 h -40 z m -40,0 h 40 v 40 h -40 z m -40,0 h 40 v 40 h -40 z m -40,0 h 40 v 40 h -40 z m -40,0 h 40 v 40 h -40 z m -40,0 h 40 v 40 h -40 z m -40,0 h 40 v 40 h -40 z m -40,0 h 40 v 40 h -40 z m -120,0 h 40 v 40 h -40 z m -40,0 h 40 v 40 h -40 z m -40,0 h 40 v 40 h -40 z m -40,0 h 40 v 40 h -40 z m -40,0 h 40 v 40 h -40 z m -40,0 h 40 v 40 h -40 z m -40,0 h 40 v 40 h -40 z m -40,0 h 40 v 40 h -40 z m -40,0 h 40 v 40 h -40 z m -40,0 h 40 v 40 h -40 z m -40,0 h 40 v 40 h -40 z m -40,0 h 40 v 40 h -40 z m -40,0 h 40 v 40 h -40 z m -40,0 h 40 v 40 h -40 z m -40,0 h 40 v 40 h -40 z m -40,0 h 40 v 40 h -40 z m -40,0 h 40 v 40 h -40 z m -40,0 h 40 v 40 h -40 z m -40,0 h 40 v 40 h -40 z m -40,0 h 40 v 40 h -40 z m -40,0 h 40 v 40 h -40 z m -40,0 h 40 v 40 h -40 z m -40,0 h 40 v 40 h -40 z m -40,0 h 40 v 40 h -40 z m -40,0 h 40 v 40 h -40 z m -40,0 h 40 v 40 h -40 z m -40,0 h 40 v 40 h -40 z m -40,0 h 40 v 40 h -40 z m -40,0 h 40 v 40 h -40 z m -40,0 h 40 v 40 h -40 z m -40,0 h 40 v 40 h -40 z m -40,0 h 40 v 40 h -40 z m -40,0 h 40 v 40 h -40 z m -40,0 h 40 v 40 h -40 z m -40,0 h 40 v 40 h -40 z m -40,0 h 40 v 40 h -40 z m -40,0 h 40 v 40 h -40 z m -40,0 h 40 v 40 h -40 z m -40,0 h 40 v 40 h -40 z m -40,0 h 40 v 40 h -40 z m -120,0 h 40 v 40 h -40 z m -40,0 h 40 v 40 h -40 z m -40,0 h 40 v 40 h -40 z m -40,0 h 40 v 40 h -40 z m -40,0 h 40 v 40 h -40 z m -40,0 h 40 v 40 h -40 z m -40,0 h 40 v 40 h -40 z m -40,0 h 40 v 40 h -40 z m -40,0 h 40 v 40 h -40 z m -40,0 h 40 v 40 h -40 z m 2520,-40 h 40 v 40 h -40 z m -40,0 h 40 v 40 h -40 z m -40,0 h 40 v 40 h -40 z m -40,0 h 40 v 40 h -40 z m -40,0 h 40 v 40 h -40 z m -40,0 h 40 v 40 h -40 z m -40,0 h 40 v 40 h -40 z m -40,0 h 40 v 40 h -40 z m -40,0 h 40 v 40 h -40 z m -40,0 h 40 v 40 h -40 z m -40,0 h 40 v 40 h -40 z m -40,0 h 40 v 40 h -40 z m -40,0 h 40 v 40 h -40 z m -40,0 h 40 v 40 h -40 z m -40,0 h 40 v 40 h -40 z m -40,0 h 40 v 40 h -40 z m -40,0 h 40 v 40 h -40 z m -40,0 h 40 v 40 h -40 z m -40,0 h 40 v 40 h -40 z m -40,0 h 40 v 40 h -40 z m -40,0 h 40 v 40 h -40 z m -40,0 h 40 v 40 h -40 z m -40,0 h 40 v 40 h -40 z m -40,0 h 40 v 40 h -40 z m -40,0 h 40 v 40 h -40 z m -40,0 h 40 v 40 h -40 z m -440,0 h 40 v 40 h -40 z m -40,0 h 40 v 40 h -40 z m -40,0 h 40 v 40 h -40 z m -40,0 h 40 v 40 h -40 z m -40,0 h 40 v 40 h -40 z m -40,0 h 40 v 40 h -40 z m -40,0 h 40 v 40 h -40 z m -40,0 h 40 v 40 h -40 z m -40,0 h 40 v 40 h -40 z m -40,0 h 40 v 40 h -40 z m -40,0 h 40 v 40 h -40 z m -40,0 h 40 v 40 h -40 z m -40,0 h 40 v 40 h -40 z m -40,0 h 40 v 40 h -40 z m -40,0 h 40 v 40 h -40 z m -40,0 h 40 v 40 h -40 z m -120,0 h 40 v 40 h -40 z m -40,0 h 40 v 40 h -40 z m -40,0 h 40 v 40 h -40 z m -40,0 h 40 v 40 h -40 z m -40,0 h 40 v 40 h -40 z m -40,0 h 40 v 40 h -40 z m -40,0 h 40 v 40 h -40 z m -40,0 h 40 v 40 h -40 z m 2440,-40 h 40 v 40 h -40 z m -40,0 h 40 v 40 h -40 z m -40,0 h 40 v 40 h -40 z m -40,0 h 40 v 40 h -40 z m -40,0 h 40 v 40 h -40 z m -40,0 h 40 v 40 h -40 z m -40,0 h 40 v 40 h -40 z m -40,0 h 40 v 40 h -40 z m -40,0 h 40 v 40 h -40 z m -40,0 h 40 v 40 h -40 z m -40,0 h 40 v 40 h -40 z m -40,0 h 40 v 40 h -40 z m -40,0 h 40 v 40 h -40 z m -40,0 h 40 v 40 h -40 z m -40,0 h 40 v 40 h -40 z m -40,0 h 40 v 40 h -40 z m -40,0 h 40 v 40 h -40 z m -40,0 h 40 v 40 h -40 z m -40,0 h 40 v 40 h -40 z m -40,0 h 40 v 40 h -40 z m -40,0 h 40 v 40 h -40 z m -40,0 h 40 v 40 h -40 z m -40,0 h 40 v 40 h -40 z m -40,0 h 40 v 40 h -40 z m -40,0 h 40 v 40 h -40 z m -40,0 h 40 v 40 h -40 z m -440,0 h 40 v 40 h -40 z m -40,0 h 40 v 40 h -40 z m -40,0 h 40 v 40 h -40 z m -40,0 h 40 v 40 h -40 z m -40,0 h 40 v 40 h -40 z m -40,0 h 40 v 40 h -40 z m -40,0 h 40 v 40 h -40 z m -40,0 h 40 v 40 h -40 z m -40,0 h 40 v 40 h -40 z m -40,0 h 40 v 40 h -40 z m -40,0 h 40 v 40 h -40 z m -40,0 h 40 v 40 h -40 z m -40,0 h 40 v 40 h -40 z m -40,0 h 40 v 40 h -40 z m -40,0 h 40 v 40 h -40 z m -40,0 h 40 v 40 h -40 z m -120,0 h 40 v 40 h -40 z m -40,0 h 40 v 40 h -40 z m -40,0 h 40 v 40 h -40 z m -40,0 h 40 v 40 h -40 z m -40,0 h 40 v 40 h -40 z m -40,0 h 40 v 40 h -40 z m -40,0 h 40 v 40 h -40 z m -40,0 h 40 v 40 h -40 z m 2440,-40 h 40 v 40 h -40 z m -40,0 h 40 v 40 h -40 z m -40,0 h 40 v 40 h -40 z m -40,0 h 40 v 40 h -40 z m -40,0 h 40 v 40 h -40 z m -40,0 h 40 v 40 h -40 z m -40,0 h 40 v 40 h -40 z m -40,0 h 40 v 40 h -40 z m -40,0 h 40 v 40 h -40 z m -40,0 h 40 v 40 h -40 z m -40,0 h 40 v 40 h -40 z m -40,0 h 40 v 40 h -40 z m -40,0 h 40 v 40 h -40 z m -40,0 h 40 v 40 h -40 z m -40,0 h 40 v 40 h -40 z m -40,0 h 40 v 40 h -40 z m -40,0 h 40 v 40 h -40 z m -40,0 h 40 v 40 h -40 z m -40,0 h 40 v 40 h -40 z m -40,0 h 40 v 40 h -40 z m -40,0 h 40 v 40 h -40 z m -40,0 h 40 v 40 h -40 z m -40,0 h 40 v 40 h -40 z m -40,0 h 40 v 40 h -40 z m -40,0 h 40 v 40 h -40 z m -40,0 h 40 v 40 h -40 z m -440,0 h 40 v 40 h -40 z m -40,0 h 40 v 40 h -40 z m -40,0 h 40 v 40 h -40 z m -40,0 h 40 v 40 h -40 z m -40,0 h 40 v 40 h -40 z m -40,0 h 40 v 40 h -40 z m -40,0 h 40 v 40 h -40 z m -40,0 h 40 v 40 h -40 z m -40,0 h 40 v 40 h -40 z m -40,0 h 40 v 40 h -40 z m -40,0 h 40 v 40 h -40 z m -40,0 h 40 v 40 h -40 z m -40,0 h 40 v 40 h -40 z m -40,0 h 40 v 40 h -40 z m -40,0 h 40 v 40 h -40 z m -40,0 h 40 v 40 h -40 z m -40,0 h 40 v 40 h -40 z m -40,0 h 40 v 40 h -40 z m -40,0 h 40 v 40 h -40 z m -40,0 h 40 v 40 h -40 z m -40,0 h 40 v 40 h -40 z m -40,0 h 40 v 40 h -40 z m -40,0 h 40 v 40 h -40 z m -40,0 h 40 v 40 h -40 z m -40,0 h 40 v 40 h -40 z m -40,0 h 40 v 40 h -40 z m 2440,-40 h 40 v 40 h -40 z m -40,0 h 40 v 40 h -40 z m -40,0 h 40 v 40 h -40 z m -40,0 h 40 v 40 h -40 z m -40,0 h 40 v 40 h -40 z m -40,0 h 40 v 40 h -40 z m -40,0 h 40 v 40 h -40 z m -40,0 h 40 v 40 h -40 z m -40,0 h 40 v 40 h -40 z m -40,0 h 40 v 40 h -40 z m -40,0 h 40 v 40 h -40 z m -40,0 h 40 v 40 h -40 z m -40,0 h 40 v 40 h -40 z m -40,0 h 40 v 40 h -40 z m -40,0 h 40 v 40 h -40 z m -40,0 h 40 v 40 h -40 z m -40,0 h 40 v 40 h -40 z m -40,0 h 40 v 40 h -40 z m -40,0 h 40 v 40 h -40 z m -40,0 h 40 v 40 h -40 z m -40,0 h 40 v 40 h -40 z m -40,0 h 40 v 40 h -40 z m -40,0 h 40 v 40 h -40 z m -40,0 h 40 v 40 h -40 z m -40,0 h 40 v 40 h -40 z m -40,0 h 40 v 40 h -40 z m -440,0 h 40 v 40 h -40 z m -40,0 h 40 v 40 h -40 z m -40,0 h 40 v 40 h -40 z m -40,0 h 40 v 40 h -40 z m -40,0 h 40 v 40 h -40 z m -40,0 h 40 v 40 h -40 z m -40,0 h 40 v 40 h -40 z m -40,0 h 40 v 40 h -40 z m -40,0 h 40 v 40 h -40 z m -40,0 h 40 v 40 h -40 z m -40,0 h 40 v 40 h -40 z m -40,0 h 40 v 40 h -40 z m -40,0 h 40 v 40 h -40 z m -40,0 h 40 v 40 h -40 z m -40,0 h 40 v 40 h -40 z m -40,0 h 40 v 40 h -40 z m -40,0 h 40 v 40 h -40 z m -40,0 h 40 v 40 h -40 z m -40,0 h 40 v 40 h -40 z m -40,0 h 40 v 40 h -40 z m -40,0 h 40 v 40 h -40 z m -40,0 h 40 v 40 h -40 z m -40,0 h 40 v 40 h -40 z m -40,0 h 40 v 40 h -40 z m -40,0 h 40 v 40 h -40 z m -40,0 h 40 v 40 h -40 z m 2360,-40 h 40 v 40 h -40 z m -40,0 h 40 v 40 h -40 z m -40,0 h 40 v 40 h -40 z m -40,0 h 40 v 40 h -40 z m -40,0 h 40 v 40 h -40 z m -40,0 h 40 v 40 h -40 z m -600,0 h 40 v 40 h -40 z m -40,0 h 40 v 40 h -40 z m -40,0 h 40 v 40 h -40 z m -40,0 h 40 v 40 h -40 z m -440,0 h 40 v 40 h -40 z m -40,0 h 40 v 40 h -40 z m -40,0 h 40 v 40 h -40 z m -80,0 h 40 v 40 h -40 z m -40,0 h 40 v 40 h -40 z m -280,0 h 40 v 40 h -40 z m -40,0 h 40 v 40 h -40 z m -40,0 h 40 v 40 h -40 z m -40,0 h 40 v 40 h -40 z m -40,0 h 40 v 40 h -40 z m -40,0 h 40 v 40 h -40 z m -40,0 h 40 v 40 h -40 z m -40,0 h 40 v 40 h -40 z m -40,0 h 40 v 40 h -40 z m -40,0 h 40 v 40 h -40 z m -40,0 h 40 v 40 h -40 z m -40,0 h 40 v 40 h -40 z m -40,0 h 40 v 40 h -40 z m -40,0 h 40 v 40 h -40 z m 2360,-40 h 40 v 40 h -40 z m -40,0 h 40 v 40 h -40 z m -40,0 h 40 v 40 h -40 z m -40,0 h 40 v 40 h -40 z m -40,0 h 40 v 40 h -40 z m -40,0 h 40 v 40 h -40 z m -120,0 h 40 v 40 h -40 z m -40,0 h 40 v 40 h -40 z m -40,0 h 40 v 40 h -40 z m -40,0 h 40 v 40 h -40 z m -280,0 h 40 v 40 h -40 z m -80,0 h 40 v 40 h -40 z m -40,0 h 40 v 40 h -40 z m -40,0 h 40 v 40 h -40 z m -40,0 h 40 v 40 h -40 z m -440,0 h 40 v 40 h -40 z m -40,0 h 40 v 40 h -40 z m -40,0 h 40 v 40 h -40 z m -80,0 h 40 v 40 h -40 z m -40,0 h 40 v 40 h -40 z m -280,0 h 40 v 40 h -40 z m -40,0 h 40 v 40 h -40 z m -40,0 h 40 v 40 h -40 z m -40,0 h 40 v 40 h -40 z m -40,0 h 40 v 40 h -40 z m -40,0 h 40 v 40 h -40 z m -40,0 h 40 v 40 h -40 z m -40,0 h 40 v 40 h -40 z m -40,0 h 40 v 40 h -40 z m -40,0 h 40 v 40 h -40 z m -40,0 h 40 v 40 h -40 z m -40,0 h 40 v 40 h -40 z m -40,0 h 40 v 40 h -40 z m -40,0 h 40 v 40 h -40 z m 2360,-40 h 40 v 40 h -40 z m -40,0 h 40 v 40 h -40 z m -40,0 h 40 v 40 h -40 z m -40,0 h 40 v 40 h -40 z m -40,0 h 40 v 40 h -40 z m -40,0 h 40 v 40 h -40 z m -40,0 h 40 v 40 h -40 z m -40,0 h 40 v 40 h -40 z m -40,0 h 40 v 40 h -40 z m -40,0 h 40 v 40 h -40 z m -80,0 h 40 v 40 h -40 z m -40,0 h 40 v 40 h -40 z m -40,0 h 40 v 40 h -40 z m -40,0 h 40 v 40 h -40 z m -40,0 h 40 v 40 h -40 z m -200,0 h 40 v 40 h -40 z m -40,0 h 40 v 40 h -40 z m -40,0 h 40 v 40 h -40 z m -40,0 h 40 v 40 h -40 z m -40,0 h 40 v 40 h -40 z m -40,0 h 40 v 40 h -40 z m -280,0 h 40 v 40 h -40 z m -40,0 h 40 v 40 h -40 z m -40,0 h 40 v 40 h -40 z m -40,0 h 40 v 40 h -40 z m -40,0 h 40 v 40 h -40 z m -240,0 h 40 v 40 h -40 z m -40,0 h 40 v 40 h -40 z m -40,0 h 40 v 40 h -40 z m -40,0 h 40 v 40 h -40 z m -40,0 h 40 v 40 h -40 z m -40,0 h 40 v 40 h -40 z m -40,0 h 40 v 40 h -40 z m -40,0 h 40 v 40 h -40 z m -40,0 h 40 v 40 h -40 z m -40,0 h 40 v 40 h -40 z m -40,0 h 40 v 40 h -40 z m -40,0 h 40 v 40 h -40 z m -40,0 h 40 v 40 h -40 z m -40,0 h 40 v 40 h -40 z m -40,0 h 40 v 40 h -40 z m -40,0 h 40 v 40 h -40 z m -40,0 h 40 v 40 h -40 z m -40,0 h 40 v 40 h -40 z m -40,0 h 40 v 40 h -40 z m -40,0 h 40 v 40 h -40 z m 2440,-40 h 40 v 40 h -40 z m -40,0 h 40 v 40 h -40 z m -40,0 h 40 v 40 h -40 z m -40,0 h 40 v 40 h -40 z m -40,0 h 40 v 40 h -40 z m -40,0 h 40 v 40 h -40 z m -40,0 h 40 v 40 h -40 z m -40,0 h 40 v 40 h -40 z m -40,0 h 40 v 40 h -40 z m -120,0 h 40 v 40 h -40 z m -40,0 h 40 v 40 h -40 z m -40,0 h 40 v 40 h -40 z m -280,0 h 40 v 40 h -40 z m -40,0 h 40 v 40 h -40 z m -40,0 h 40 v 40 h -40 z m -40,0 h 40 v 40 h -40 z m -40,0 h 40 v 40 h -40 z m -40,0 h 40 v 40 h -40 z m -280,0 h 40 v 40 h -40 z m -40,0 h 40 v 40 h -40 z m -40,0 h 40 v 40 h -40 z m -40,0 h 40 v 40 h -40 z m -40,0 h 40 v 40 h -40 z m -240,0 h 40 v 40 h -40 z m -40,0 h 40 v 40 h -40 z m -40,0 h 40 v 40 h -40 z m -40,0 h 40 v 40 h -40 z m -40,0 h 40 v 40 h -40 z m -40,0 h 40 v 40 h -40 z m -40,0 h 40 v 40 h -40 z m -40,0 h 40 v 40 h -40 z m -40,0 h 40 v 40 h -40 z m -40,0 h 40 v 40 h -40 z m -40,0 h 40 v 40 h -40 z m -40,0 h 40 v 40 h -40 z m -40,0 h 40 v 40 h -40 z m -40,0 h 40 v 40 h -40 z m -40,0 h 40 v 40 h -40 z m -40,0 h 40 v 40 h -40 z m -40,0 h 40 v 40 h -40 z m -40,0 h 40 v 40 h -40 z m -40,0 h 40 v 40 h -40 z m -40,0 h 40 v 40 h -40 z m 2520,-40 h 40 v 40 h -40 z m -40,0 h 40 v 40 h -40 z m -40,0 h 40 v 40 h -40 z m -40,0 h 40 v 40 h -40 z m -760,0 h 40 v 40 h -40 z m -40,0 h 40 v 40 h -40 z m -40,0 h 40 v 40 h -40 z m -40,0 h 40 v 40 h -40 z m -40,0 h 40 v 40 h -40 z m -40,0 h 40 v 40 h -40 z m -280,0 h 40 v 40 h -40 z m -40,0 h 40 v 40 h -40 z m -40,0 h 40 v 40 h -40 z m -40,0 h 40 v 40 h -40 z m -40,0 h 40 v 40 h -40 z m -40,0 h 40 v 40 h -40 z m -760,0 h 40 v 40 h -40 z m -40,0 h 40 v 40 h -40 z m -40,0 h 40 v 40 h -40 z m -40,0 h 40 v 40 h -40 z m -40,0 h 40 v 40 h -40 z m -40,0 h 40 v 40 h -40 z m -40,0 h 40 v 40 h -40 z m -40,0 h 40 v 40 H 80 Z m 2600,-40 h 40 v 40 h -40 z m -40,0 h 40 v 40 h -40 z m -40,0 h 40 v 40 h -40 z m -40,0 h 40 v 40 h -40 z m -760,0 h 40 v 40 h -40 z m -40,0 h 40 v 40 h -40 z m -40,0 h 40 v 40 h -40 z m -40,0 h 40 v 40 h -40 z m -40,0 h 40 v 40 h -40 z m -40,0 h 40 v 40 h -40 z m -280,0 h 40 v 40 h -40 z m -40,0 h 40 v 40 h -40 z m -40,0 h 40 v 40 h -40 z m -40,0 h 40 v 40 h -40 z m -40,0 h 40 v 40 h -40 z m -40,0 h 40 v 40 h -40 z m -760,0 h 40 v 40 h -40 z m -40,0 h 40 v 40 h -40 z m -40,0 h 40 v 40 h -40 z m -40,0 h 40 v 40 h -40 z m -40,0 h 40 v 40 h -40 z m -40,0 h 40 v 40 h -40 z m -40,0 h 40 v 40 h -40 z m -40,0 h 40 v 40 H 80 Z m 2680,-40 h 40 v 40 h -40 z m -40,0 h 40 v 40 h -40 z m -40,0 h 40 v 40 h -40 z m -40,0 h 40 v 40 h -40 z m -920,0 h 40 v 40 h -40 z m -40,0 h 40 v 40 h -40 z m -40,0 h 40 v 40 h -40 z m -40,0 h 40 v 40 h -40 z m -40,0 h 40 v 40 h -40 z m -40,0 h 40 v 40 h -40 z m -120,0 h 40 v 40 h -40 z m -40,0 h 40 v 40 h -40 z m -40,0 h 40 v 40 h -40 z m -40,0 h 40 v 40 h -40 z m -40,0 h 40 v 40 h -40 z m -40,0 h 40 v 40 h -40 z m -40,0 h 40 v 40 h -40 z m -40,0 h 40 v 40 h -40 z m -840,0 h 40 v 40 h -40 z m -40,0 h 40 v 40 h -40 z m -40,0 h 40 v 40 h -40 z m -40,0 h 40 v 40 h -40 z m -40,0 h 40 v 40 h -40 z m -40,0 h 40 v 40 H 80 Z m 2680,-40 h 40 v 40 h -40 z m -40,0 h 40 v 40 h -40 z m -40,0 h 40 v 40 h -40 z m -40,0 h 40 v 40 h -40 z m -920,0 h 40 v 40 h -40 z m -40,0 h 40 v 40 h -40 z m -40,0 h 40 v 40 h -40 z m -40,0 h 40 v 40 h -40 z m -40,0 h 40 v 40 h -40 z m -40,0 h 40 v 40 h -40 z m -120,0 h 40 v 40 h -40 z m -40,0 h 40 v 40 h -40 z m -40,0 h 40 v 40 h -40 z m -40,0 h 40 v 40 h -40 z m -40,0 h 40 v 40 h -40 z m -40,0 h 40 v 40 h -40 z m -40,0 h 40 v 40 h -40 z m -40,0 h 40 v 40 h -40 z m -840,0 h 40 v 40 h -40 z m -40,0 h 40 v 40 h -40 z m -40,0 h 40 v 40 h -40 z m -40,0 h 40 v 40 h -40 z m -40,0 h 40 v 40 h -40 z m -40,0 h 40 v 40 H 80 Z m 2680,-40 h 40 v 40 h -40 z m -40,0 h 40 v 40 h -40 z m -640,40 z m -160,0 z m 160,-160 z m -160,0 z m -200,120 h 40 v 40 h -40 z m -40,0 h 40 v 40 h -40 z m -40,0 h 40 v 40 h -40 z m -40,0 h 40 v 40 h -40 z m -40,0 h 40 v 40 h -40 z m -40,0 h 40 v 40 h -40 z m -40,0 h 40 v 40 h -40 z m -40,0 h 40 v 40 h -40 z m -40,0 h 40 v 40 h -40 z m -40,0 h 40 v 40 h -40 z m -40,0 h 40 v 40 h -40 z m -40,0 h 40 v 40 h -40 z m -40,0 h 40 v 40 h -40 z m -40,0 h 40 v 40 h -40 z m -560,40 z m -160,0 z m 160,-160 z m -160,0 z m -280,120 h 40 v 40 h -40 z m -40,0 h 40 v 40 h -40 z m -40,0 h 40 v 40 h -40 z m -40,0 h 40 v 40 H 80 Z m -40,0 h 40 v 40 H 40 Z m -40,0 h 40 v 40 H 0 Z m 2760,-40 h 40 v 40 h -40 z m -40,0 h 40 v 40 h -40 z m -1000,0 h 40 v 40 h -40 z m -40,0 h 40 v 40 h -40 z m -40,0 h 40 v 40 h -40 z m -40,0 h 40 v 40 h -40 z m -40,0 h 40 v 40 h -40 z m -40,0 h 40 v 40 h -40 z m -40,0 h 40 v 40 h -40 z m -40,0 h 40 v 40 h -40 z m -40,0 h 40 v 40 h -40 z m -40,0 h 40 v 40 h -40 z m -40,0 h 40 v 40 h -40 z m -40,0 h 40 v 40 h -40 z m -40,0 h 40 v 40 h -40 z m -40,0 h 40 v 40 h -40 z m -1000,0 h 40 v 40 h -40 z m -40,0 h 40 v 40 h -40 z m -40,0 h 40 v 40 h -40 z m -40,0 h 40 v 40 H 80 Z m -40,0 h 40 v 40 H 40 Z m -40,0 h 40 v 40 H 0 Z m 2840,-40 h 40 v 40 h -40 z m -40,0 h 40 v 40 h -40 z m -40,0 h 40 v 40 h -40 z m -40,0 h 40 v 40 h -40 z m -1000,0 h 40 v 40 h -40 z m -40,0 h 40 v 40 h -40 z m -40,0 h 40 v 40 h -40 z m -40,0 h 40 v 40 h -40 z m -40,0 h 40 v 40 h -40 z m -40,0 h 40 v 40 h -40 z m -40,0 h 40 v 40 h -40 z m -40,0 h 40 v 40 h -40 z m -40,0 h 40 v 40 h -40 z m -40,0 h 40 v 40 h -40 z m -40,0 h 40 v 40 h -40 z m -40,0 h 40 v 40 h -40 z m -40,0 h 40 v 40 h -40 z m -40,0 h 40 v 40 h -40 z m -1000,0 h 40 v 40 h -40 z m -40,0 h 40 v 40 h -40 z m -40,0 h 40 v 40 h -40 z m -40,0 h 40 v 40 H 80 Z m -40,0 h 40 v 40 H 40 Z m -40,0 h 40 v 40 H 0 Z m 2840,-40 h 40 v 40 h -40 z m -40,0 h 40 v 40 h -40 z m -40,0 h 40 v 40 h -40 z m -40,0 h 40 v 40 h -40 z m -1000,0 h 40 v 40 h -40 z m -40,0 h 40 v 40 h -40 z m -40,0 h 40 v 40 h -40 z m -40,0 h 40 v 40 h -40 z m -40,0 h 40 v 40 h -40 z m -40,0 h 40 v 40 h -40 z m -40,0 h 40 v 40 h -40 z m -40,0 h 40 v 40 h -40 z m -40,0 h 40 v 40 h -40 z m -40,0 h 40 v 40 h -40 z m -40,0 h 40 v 40 h -40 z m -40,0 h 40 v 40 h -40 z m -40,0 h 40 v 40 h -40 z m -40,0 h 40 v 40 h -40 z m -1000,0 h 40 v 40 h -40 z m -40,0 h 40 v 40 h -40 z m -40,0 h 40 v 40 h -40 z m -40,0 h 40 v 40 H 80 Z m -40,0 h 40 v 40 H 40 Z m -40,0 h 40 v 40 H 0 Z m 2840,-40 h 40 v 40 h -40 z m -40,0 h 40 v 40 h -40 z m -40,0 h 40 v 40 h -40 z m -40,0 h 40 v 40 h -40 z m -1000,0 h 40 v 40 h -40 z m -40,0 h 40 v 40 h -40 z m -40,0 h 40 v 40 h -40 z m -40,0 h 40 v 40 h -40 z m -40,0 h 40 v 40 h -40 z m -40,0 h 40 v 40 h -40 z m -40,0 h 40 v 40 h -40 z m -40,0 h 40 v 40 h -40 z m -40,0 h 40 v 40 h -40 z m -40,0 h 40 v 40 h -40 z m -40,0 h 40 v 40 h -40 z m -40,0 h 40 v 40 h -40 z m -40,0 h 40 v 40 h -40 z m -40,0 h 40 v 40 h -40 z m -1000,0 h 40 v 40 h -40 z m -40,0 h 40 v 40 h -40 z m -40,0 h 40 v 40 h -40 z m -40,0 h 40 v 40 H 80 Z m -40,0 h 40 v 40 H 40 Z m -40,0 h 40 v 40 H 0 Z m 2840,-40 h 40 v 40 h -40 z m -40,0 h 40 v 40 h -40 z m -40,0 h 40 v 40 h -40 z m -40,0 h 40 v 40 h -40 z m -1000,0 h 40 v 40 h -40 z m -40,0 h 40 v 40 h -40 z m -40,0 h 40 v 40 h -40 z m -40,0 h 40 v 40 h -40 z m -40,0 h 40 v 40 h -40 z m -40,0 h 40 v 40 h -40 z m -40,0 h 40 v 40 h -40 z m -40,0 h 40 v 40 h -40 z m -40,0 h 40 v 40 h -40 z m -40,0 h 40 v 40 h -40 z m -40,0 h 40 v 40 h -40 z m -40,0 h 40 v 40 h -40 z m -40,0 h 40 v 40 h -40 z m -40,0 h 40 v 40 h -40 z m -1000,0 h 40 v 40 h -40 z m -40,0 h 40 v 40 h -40 z m -40,0 h 40 v 40 h -40 z m -40,0 h 40 v 40 H 80 Z m -40,0 h 40 v 40 H 40 Z m -40,0 h 40 v 40 H 0 Z m 2840,-40 h 40 v 40 h -40 z m -40,0 h 40 v 40 h -40 z m -40,0 h 40 v 40 h -40 z m -40,0 h 40 v 40 h -40 z m -40,0 h 40 v 40 h -40 z m -40,0 h 40 v 40 h -40 z m -920,0 h 40 v 40 h -40 z m -40,0 h 40 v 40 h -40 z m -40,0 h 40 v 40 h -40 z m -40,0 h 40 v 40 h -40 z m -40,0 h 40 v 40 h -40 z m -40,0 h 40 v 40 h -40 z m -40,0 h 40 v 40 h -40 z m -40,0 h 40 v 40 h -40 z m -40,0 h 40 v 40 h -40 z m -40,0 h 40 v 40 h -40 z m -40,0 h 40 v 40 h -40 z m -40,0 h 40 v 40 h -40 z m -40,0 h 40 v 40 h -40 z m -40,0 h 40 v 40 h -40 z m -920,0 h 40 v 40 h -40 z m -40,0 h 40 v 40 h -40 z m -40,0 h 40 v 40 h -40 z m -40,0 h 40 v 40 h -40 z m -40,0 h 40 v 40 h -40 z m -40,0 h 40 v 40 H 80 Z m -40,0 h 40 v 40 H 40 Z m -40,0 h 40 v 40 H 0 Z m 2840,-40 h 40 v 40 h -40 z m -40,0 h 40 v 40 h -40 z m -40,0 h 40 v 40 h -40 z m -40,0 h 40 v 40 h -40 z m -40,0 h 40 v 40 h -40 z m -40,0 h 40 v 40 h -40 z m -920,0 h 40 v 40 h -40 z m -40,0 h 40 v 40 h -40 z m -40,0 h 40 v 40 h -40 z m -40,0 h 40 v 40 h -40 z m -40,0 h 40 v 40 h -40 z m -40,0 h 40 v 40 h -40 z m -40,0 h 40 v 40 h -40 z m -40,0 h 40 v 40 h -40 z m -40,0 h 40 v 40 h -40 z m -40,0 h 40 v 40 h -40 z m -40,0 h 40 v 40 h -40 z m -40,0 h 40 v 40 h -40 z m -40,0 h 40 v 40 h -40 z m -40,0 h 40 v 40 h -40 z m -920,0 h 40 v 40 h -40 z m -40,0 h 40 v 40 h -40 z m -40,0 h 40 v 40 h -40 z m -40,0 h 40 v 40 h -40 z m -40,0 h 40 v 40 h -40 z m -40,0 h 40 v 40 H 80 Z m -40,0 h 40 v 40 H 40 Z m -40,0 h 40 v 40 H 0 Z m 2840,-40 h 40 v 40 h -40 z m -40,0 h 40 v 40 h -40 z m -40,0 h 40 v 40 h -40 z m -40,0 h 40 v 40 h -40 z m -40,0 h 40 v 40 h -40 z m -40,0 h 40 v 40 h -40 z m -40,0 h 40 v 40 h -40 z m -40,0 h 40 v 40 h -40 z m -760,0 h 40 v 40 h -40 z m -40,0 h 40 v 40 h -40 z m -40,0 h 40 v 40 h -40 z m -40,0 h 40 v 40 h -40 z m -40,0 h 40 v 40 h -40 z m -40,0 h 40 v 40 h -40 z m -40,0 h 40 v 40 h -40 z m -40,0 h 40 v 40 h -40 z m -40,0 h 40 v 40 h -40 z m -40,0 h 40 v 40 h -40 z m -40,0 h 40 v 40 h -40 z m -40,0 h 40 v 40 h -40 z m -40,0 h 40 v 40 h -40 z m -40,0 h 40 v 40 h -40 z m -40,0 h 40 v 40 h -40 z m -40,0 h 40 v 40 h -40 z m -40,0 h 40 v 40 h -40 z m -40,0 h 40 v 40 h -40 z m -760,0 h 40 v 40 h -40 z m -40,0 h 40 v 40 h -40 z m -40,0 h 40 v 40 h -40 z m -40,0 h 40 v 40 h -40 z m -40,0 h 40 v 40 h -40 z m -40,0 h 40 v 40 h -40 z m -40,0 h 40 v 40 h -40 z m -40,0 h 40 v 40 H 80 Z m -40,0 h 40 v 40 H 40 Z m -40,0 h 40 v 40 H 0 Z m 2840,-40 h 40 v 40 h -40 z m -40,0 h 40 v 40 h -40 z m -40,0 h 40 v 40 h -40 z m -40,0 h 40 v 40 h -40 z m -40,0 h 40 v 40 h -40 z m -40,0 h 40 v 40 h -40 z m -40,0 h 40 v 40 h -40 z m -40,0 h 40 v 40 h -40 z m -760,0 h 40 v 40 h -40 z m -40,0 h 40 v 40 h -40 z m -40,0 h 40 v 40 h -40 z m -40,0 h 40 v 40 h -40 z m -40,0 h 40 v 40 h -40 z m -40,0 h 40 v 40 h -40 z m -40,0 h 40 v 40 h -40 z m -40,0 h 40 v 40 h -40 z m -40,0 h 40 v 40 h -40 z m -40,0 h 40 v 40 h -40 z m -40,0 h 40 v 40 h -40 z m -40,0 h 40 v 40 h -40 z m -40,0 h 40 v 40 h -40 z m -40,0 h 40 v 40 h -40 z m -40,0 h 40 v 40 h -40 z m -40,0 h 40 v 40 h -40 z m -40,0 h 40 v 40 h -40 z m -40,0 h 40 v 40 h -40 z m -760,0 h 40 v 40 h -40 z m -40,0 h 40 v 40 h -40 z m -40,0 h 40 v 40 h -40 z m -40,0 h 40 v 40 h -40 z m -40,0 h 40 v 40 h -40 z m -40,0 h 40 v 40 h -40 z m -40,0 h 40 v 40 h -40 z m -40,0 h 40 v 40 H 80 Z m -40,0 h 40 v 40 H 40 Z m -40,0 h 40 v 40 H 0 Z m 2840,-40 h 40 v 40 h -40 z m -40,0 h 40 v 40 h -40 z m -40,0 h 40 v 40 h -40 z m -40,0 h 40 v 40 h -40 z m -40,0 h 40 v 40 h -40 z m -40,0 h 40 v 40 h -40 z m -40,0 h 40 v 40 h -40 z m -40,0 h 40 v 40 h -40 z m -40,0 h 40 v 40 h -40 z m -40,0 h 40 v 40 h -40 z m -520,0 h 40 v 40 h -40 z m -40,0 h 40 v 40 h -40 z m -40,0 h 40 v 40 h -40 z m -40,0 h 40 v 40 h -40 z m -40,0 h 40 v 40 h -40 z m -40,0 h 40 v 40 h -40 z m -40,0 h 40 v 40 h -40 z m -40,0 h 40 v 40 h -40 z m -40,0 h 40 v 40 h -40 z m -40,0 h 40 v 40 h -40 z m -40,0 h 40 v 40 h -40 z m -40,0 h 40 v 40 h -40 z m -40,0 h 40 v 40 h -40 z m -40,0 h 40 v 40 h -40 z m -40,0 h 40 v 40 h -40 z m -40,0 h 40 v 40 h -40 z m -40,0 h 40 v 40 h -40 z m -40,0 h 40 v 40 h -40 z m -40,0 h 40 v 40 h -40 z m -40,0 h 40 v 40 h -40 z m -40,0 h 40 v 40 h -40 z m -40,0 h 40 v 40 h -40 z m -40,0 h 40 v 40 h -40 z m -40,0 h 40 v 40 h -40 z m -520,0 h 40 v 40 h -40 z m -40,0 h 40 v 40 h -40 z m -40,0 h 40 v 40 h -40 z m -40,0 h 40 v 40 h -40 z m -40,0 h 40 v 40 h -40 z m -40,0 h 40 v 40 h -40 z m -40,0 h 40 v 40 h -40 z m -40,0 h 40 v 40 h -40 z m -40,0 h 40 v 40 h -40 z m -40,0 h 40 v 40 h -40 z m -40,0 h 40 v 40 h -40 z m -40,0 h 40 v 40 H 80 Z m -40,0 h 40 v 40 H 40 Z m -40,0 h 40 v 40 H 0 Z m 2840,-40 h 40 v 40 h -40 z m -40,0 h 40 v 40 h -40 z m -40,0 h 40 v 40 h -40 z m -40,0 h 40 v 40 h -40 z m -40,0 h 40 v 40 h -40 z m -40,0 h 40 v 40 h -40 z m -40,0 h 40 v 40 h -40 z m -40,0 h 40 v 40 h -40 z m -40,0 h 40 v 40 h -40 z m -40,0 h 40 v 40 h -40 z m -520,0 h 40 v 40 h -40 z m -40,0 h 40 v 40 h -40 z m -40,0 h 40 v 40 h -40 z m -40,0 h 40 v 40 h -40 z m -40,0 h 40 v 40 h -40 z m -40,0 h 40 v 40 h -40 z m -40,0 h 40 v 40 h -40 z m -40,0 h 40 v 40 h -40 z m -40,0 h 40 v 40 h -40 z m -40,0 h 40 v 40 h -40 z m -40,0 h 40 v 40 h -40 z m -40,0 h 40 v 40 h -40 z m -40,0 h 40 v 40 h -40 z m -40,0 h 40 v 40 h -40 z m -40,0 h 40 v 40 h -40 z m -40,0 h 40 v 40 h -40 z m -40,0 h 40 v 40 h -40 z m -40,0 h 40 v 40 h -40 z m -40,0 h 40 v 40 h -40 z m -40,0 h 40 v 40 h -40 z m -40,0 h 40 v 40 h -40 z m -40,0 h 40 v 40 h -40 z m -40,0 h 40 v 40 h -40 z m -40,0 h 40 v 40 h -40 z m -520,0 h 40 v 40 h -40 z m -40,0 h 40 v 40 h -40 z m -40,0 h 40 v 40 h -40 z m -40,0 h 40 v 40 h -40 z m -40,0 h 40 v 40 h -40 z m -40,0 h 40 v 40 h -40 z m -40,0 h 40 v 40 h -40 z m -40,0 h 40 v 40 h -40 z m -40,0 h 40 v 40 h -40 z m -40,0 h 40 v 40 h -40 z m -40,0 h 40 v 40 h -40 z m -40,0 h 40 v 40 H 80 Z m -40,0 h 40 v 40 H 40 Z m -40,0 h 40 v 40 H 0 Z m 2840,-40 h 40 v 40 h -40 z m -40,0 h 40 v 40 h -40 z m -40,0 h 40 v 40 h -40 z m -40,0 h 40 v 40 h -40 z m -40,0 h 40 v 40 h -40 z m -40,0 h 40 v 40 h -40 z m -40,0 h 40 v 40 h -40 z m -40,0 h 40 v 40 h -40 z m -40,0 h 40 v 40 h -40 z m -40,0 h 40 v 40 h -40 z m -40,0 h 40 v 40 h -40 z m -40,0 h 40 v 40 h -40 z m -40,0 h 40 v 40 h -40 z m -40,0 h 40 v 40 h -40 z m -40,0 h 40 v 40 h -40 z m -40,0 h 40 v 40 h -40 z m -40,0 h 40 v 40 h -40 z m -40,0 h 40 v 40 h -40 z m -40,0 h 40 v 40 h -40 z m -40,0 h 40 v 40 h -40 z m -40,0 h 40 v 40 h -40 z m -40,0 h 40 v 40 h -40 z m -40,0 h 40 v 40 h -40 z m -40,0 h 40 v 40 h -40 z m -40,0 h 40 v 40 h -40 z m -40,0 h 40 v 40 h -40 z m -40,0 h 40 v 40 h -40 z m -40,0 h 40 v 40 h -40 z m -40,0 h 40 v 40 h -40 z m -40,0 h 40 v 40 h -40 z m -40,0 h 40 v 40 h -40 z m -40,0 h 40 v 40 h -40 z m -40,0 h 40 v 40 h -40 z m -40,0 h 40 v 40 h -40 z m -40,0 h 40 v 40 h -40 z m -40,0 h 40 v 40 h -40 z m -40,0 h 40 v 40 h -40 z m -40,0 h 40 v 40 h -40 z m -40,0 h 40 v 40 h -40 z m -40,0 h 40 v 40 h -40 z m -40,0 h 40 v 40 h -40 z m -40,0 h 40 v 40 h -40 z m -40,0 h 40 v 40 h -40 z m -40,0 h 40 v 40 h -40 z m -40,0 h 40 v 40 h -40 z m -40,0 h 40 v 40 h -40 z m -40,0 h 40 v 40 h -40 z m -40,0 h 40 v 40 h -40 z m -40,0 h 40 v 40 h -40 z m -40,0 h 40 v 40 h -40 z m -40,0 h 40 v 40 h -40 z m -40,0 h 40 v 40 h -40 z m -40,0 h 40 v 40 h -40 z m -40,0 h 40 v 40 h -40 z m -40,0 h 40 v 40 h -40 z m -40,0 h 40 v 40 h -40 z m -40,0 h 40 v 40 h -40 z m -40,0 h 40 v 40 h -40 z m -40,0 h 40 v 40 h -40 z m -40,0 h 40 v 40 h -40 z m -40,0 h 40 v 40 h -40 z m -40,0 h 40 v 40 h -40 z m -40,0 h 40 v 40 h -40 z m -40,0 h 40 v 40 h -40 z m -40,0 h 40 v 40 h -40 z m -40,0 h 40 v 40 h -40 z m -40,0 h 40 v 40 h -40 z m -40,0 h 40 v 40 h -40 z m -40,0 h 40 v 40 h -40 z m -40,0 h 40 v 40 H 80 Z m 2760,-40 h 40 v 40 h -40 z m -40,0 h 40 v 40 h -40 z m -40,0 h 40 v 40 h -40 z m -40,0 h 40 v 40 h -40 z m -40,0 h 40 v 40 h -40 z m -40,0 h 40 v 40 h -40 z m -40,0 h 40 v 40 h -40 z m -40,0 h 40 v 40 h -40 z m -40,0 h 40 v 40 h -40 z m -40,0 h 40 v 40 h -40 z m -40,0 h 40 v 40 h -40 z m -40,0 h 40 v 40 h -40 z m -40,0 h 40 v 40 h -40 z m -40,0 h 40 v 40 h -40 z m -40,0 h 40 v 40 h -40 z m -40,0 h 40 v 40 h -40 z m -40,0 h 40 v 40 h -40 z m -40,0 h 40 v 40 h -40 z m -40,0 h 40 v 40 h -40 z m -40,0 h 40 v 40 h -40 z m -40,0 h 40 v 40 h -40 z m -40,0 h 40 v 40 h -40 z m -40,0 h 40 v 40 h -40 z m -40,0 h 40 v 40 h -40 z m -40,0 h 40 v 40 h -40 z m -40,0 h 40 v 40 h -40 z m -40,0 h 40 v 40 h -40 z m -40,0 h 40 v 40 h -40 z m -40,0 h 40 v 40 h -40 z m -40,0 h 40 v 40 h -40 z m -40,0 h 40 v 40 h -40 z m -40,0 h 40 v 40 h -40 z m -40,0 h 40 v 40 h -40 z m -40,0 h 40 v 40 h -40 z m -40,0 h 40 v 40 h -40 z m -40,0 h 40 v 40 h -40 z m -40,0 h 40 v 40 h -40 z m -40,0 h 40 v 40 h -40 z m -40,0 h 40 v 40 h -40 z m -40,0 h 40 v 40 h -40 z m -40,0 h 40 v 40 h -40 z m -40,0 h 40 v 40 h -40 z m -40,0 h 40 v 40 h -40 z m -40,0 h 40 v 40 h -40 z m -40,0 h 40 v 40 h -40 z m -40,0 h 40 v 40 h -40 z m -40,0 h 40 v 40 h -40 z m -40,0 h 40 v 40 h -40 z m -40,0 h 40 v 40 h -40 z m -40,0 h 40 v 40 h -40 z m -40,0 h 40 v 40 h -40 z m -40,0 h 40 v 40 h -40 z m -40,0 h 40 v 40 h -40 z m -40,0 h 40 v 40 h -40 z m -40,0 h 40 v 40 h -40 z m -40,0 h 40 v 40 h -40 z m -40,0 h 40 v 40 h -40 z m -40,0 h 40 v 40 h -40 z m -40,0 h 40 v 40 h -40 z m -40,0 h 40 v 40 h -40 z m -40,0 h 40 v 40 h -40 z m -40,0 h 40 v 40 h -40 z m -40,0 h 40 v 40 h -40 z m -40,0 h 40 v 40 h -40 z m -40,0 h 40 v 40 h -40 z m -40,0 h 40 v 40 h -40 z m -40,0 h 40 v 40 h -40 z m -40,0 h 40 v 40 h -40 z m -40,0 h 40 v 40 h -40 z m -40,0 h 40 v 40 H 80 Z m 2680,-40 h 40 v 40 h -40 z m -40,0 h 40 v 40 h -40 z m -40,0 h 40 v 40 h -40 z m -40,0 h 40 v 40 h -40 z m -40,0 h 40 v 40 h -40 z m -40,0 h 40 v 40 h -40 z m -40,0 h 40 v 40 h -40 z m -40,0 h 40 v 40 h -40 z m -40,0 h 40 v 40 h -40 z m -40,0 h 40 v 40 h -40 z m -40,0 h 40 v 40 h -40 z m -40,0 h 40 v 40 h -40 z m -40,0 h 40 v 40 h -40 z m -40,0 h 40 v 40 h -40 z m -40,0 h 40 v 40 h -40 z m -40,0 h 40 v 40 h -40 z m -40,0 h 40 v 40 h -40 z m -40,0 h 40 v 40 h -40 z m -40,0 h 40 v 40 h -40 z m -40,0 h 40 v 40 h -40 z m -40,0 h 40 v 40 h -40 z m -40,0 h 40 v 40 h -40 z m -40,0 h 40 v 40 h -40 z m -40,0 h 40 v 40 h -40 z m -40,0 h 40 v 40 h -40 z m -40,0 h 40 v 40 h -40 z m -40,0 h 40 v 40 h -40 z m -40,0 h 40 v 40 h -40 z m -40,0 h 40 v 40 h -40 z m -40,0 h 40 v 40 h -40 z m -40,0 h 40 v 40 h -40 z m -40,0 h 40 v 40 h -40 z m -40,0 h 40 v 40 h -40 z m -40,0 h 40 v 40 h -40 z m -40,0 h 40 v 40 h -40 z m -40,0 h 40 v 40 h -40 z m -40,0 h 40 v 40 h -40 z m -40,0 h 40 v 40 h -40 z m -40,0 h 40 v 40 h -40 z m -40,0 h 40 v 40 h -40 z m -40,0 h 40 v 40 h -40 z m -40,0 h 40 v 40 h -40 z m -40,0 h 40 v 40 h -40 z m -40,0 h 40 v 40 h -40 z m -40,0 h 40 v 40 h -40 z m -40,0 h 40 v 40 h -40 z m -40,0 h 40 v 40 h -40 z m -40,0 h 40 v 40 h -40 z m -40,0 h 40 v 40 h -40 z m -40,0 h 40 v 40 h -40 z m -40,0 h 40 v 40 h -40 z m -40,0 h 40 v 40 h -40 z m -40,0 h 40 v 40 h -40 z m -40,0 h 40 v 40 h -40 z m -40,0 h 40 v 40 h -40 z m -40,0 h 40 v 40 h -40 z m -40,0 h 40 v 40 h -40 z m -40,0 h 40 v 40 h -40 z m -40,0 h 40 v 40 h -40 z m -40,0 h 40 v 40 h -40 z m -40,0 h 40 v 40 h -40 z m -40,0 h 40 v 40 h -40 z m -40,0 h 40 v 40 h -40 z m -40,0 h 40 v 40 h -40 z m -40,0 h 40 v 40 h -40 z m -40,0 h 40 v 40 h -40 z m -40,0 h 40 v 40 h -40 z m -40,0 h 40 v 40 H 80 Z m 2680,-40 h 40 v 40 h -40 z m -40,0 h 40 v 40 h -40 z m -40,0 h 40 v 40 h -40 z m -40,0 h 40 v 40 h -40 z m -40,0 h 40 v 40 h -40 z m -40,0 h 40 v 40 h -40 z m -40,0 h 40 v 40 h -40 z m -40,0 h 40 v 40 h -40 z m -40,0 h 40 v 40 h -40 z m -40,0 h 40 v 40 h -40 z m -40,0 h 40 v 40 h -40 z m -40,0 h 40 v 40 h -40 z m -40,0 h 40 v 40 h -40 z m -40,0 h 40 v 40 h -40 z m -40,0 h 40 v 40 h -40 z m -40,0 h 40 v 40 h -40 z m -40,0 h 40 v 40 h -40 z m -40,0 h 40 v 40 h -40 z m -40,0 h 40 v 40 h -40 z m -40,0 h 40 v 40 h -40 z m -40,0 h 40 v 40 h -40 z m -40,0 h 40 v 40 h -40 z m -40,0 h 40 v 40 h -40 z m -40,0 h 40 v 40 h -40 z m -40,0 h 40 v 40 h -40 z m -40,0 h 40 v 40 h -40 z m -40,0 h 40 v 40 h -40 z m -40,0 h 40 v 40 h -40 z m -40,0 h 40 v 40 h -40 z m -40,0 h 40 v 40 h -40 z m -40,0 h 40 v 40 h -40 z m -40,0 h 40 v 40 h -40 z m -40,0 h 40 v 40 h -40 z m -40,0 h 40 v 40 h -40 z m -40,0 h 40 v 40 h -40 z m -40,0 h 40 v 40 h -40 z m -40,0 h 40 v 40 h -40 z m -40,0 h 40 v 40 h -40 z m -40,0 h 40 v 40 h -40 z m -40,0 h 40 v 40 h -40 z m -40,0 h 40 v 40 h -40 z m -40,0 h 40 v 40 h -40 z m -40,0 h 40 v 40 h -40 z m -40,0 h 40 v 40 h -40 z m -40,0 h 40 v 40 h -40 z m -40,0 h 40 v 40 h -40 z m -40,0 h 40 v 40 h -40 z m -40,0 h 40 v 40 h -40 z m -40,0 h 40 v 40 h -40 z m -40,0 h 40 v 40 h -40 z m -40,0 h 40 v 40 h -40 z m -40,0 h 40 v 40 h -40 z m -40,0 h 40 v 40 h -40 z m -40,0 h 40 v 40 h -40 z m -40,0 h 40 v 40 h -40 z m -40,0 h 40 v 40 h -40 z m -40,0 h 40 v 40 h -40 z m -40,0 h 40 v 40 h -40 z m -40,0 h 40 v 40 h -40 z m -40,0 h 40 v 40 h -40 z m -40,0 h 40 v 40 h -40 z m -40,0 h 40 v 40 h -40 z m -40,0 h 40 v 40 h -40 z m -40,0 h 40 v 40 h -40 z m -40,0 h 40 v 40 h -40 z m -40,0 h 40 v 40 h -40 z m -40,0 h 40 v 40 h -40 z m -40,0 h 40 v 40 H 80 Z m 2680,-40 h 40 v 40 h -40 z m -40,0 h 40 v 40 h -40 z m -40,0 h 40 v 40 h -40 z m -40,0 h 40 v 40 h -40 z m -40,0 h 40 v 40 h -40 z m -40,0 h 40 v 40 h -40 z m -40,0 h 40 v 40 h -40 z m -40,0 h 40 v 40 h -40 z m -40,0 h 40 v 40 h -40 z m -40,0 h 40 v 40 h -40 z m -40,0 h 40 v 40 h -40 z m -40,0 h 40 v 40 h -40 z m -40,0 h 40 v 40 h -40 z m -40,0 h 40 v 40 h -40 z m -40,0 h 40 v 40 h -40 z m -40,0 h 40 v 40 h -40 z m -40,0 h 40 v 40 h -40 z m -40,0 h 40 v 40 h -40 z m -40,0 h 40 v 40 h -40 z m -40,0 h 40 v 40 h -40 z m -40,0 h 40 v 40 h -40 z m -40,0 h 40 v 40 h -40 z m -40,0 h 40 v 40 h -40 z m -40,0 h 40 v 40 h -40 z m -40,0 h 40 v 40 h -40 z m -40,0 h 40 v 40 h -40 z m -40,0 h 40 v 40 h -40 z m -40,0 h 40 v 40 h -40 z m -40,0 h 40 v 40 h -40 z m -40,0 h 40 v 40 h -40 z m -40,0 h 40 v 40 h -40 z m -40,0 h 40 v 40 h -40 z m -40,0 h 40 v 40 h -40 z m -40,0 h 40 v 40 h -40 z m -40,0 h 40 v 40 h -40 z m -40,0 h 40 v 40 h -40 z m -40,0 h 40 v 40 h -40 z m -40,0 h 40 v 40 h -40 z m -40,0 h 40 v 40 h -40 z m -40,0 h 40 v 40 h -40 z m -40,0 h 40 v 40 h -40 z m -40,0 h 40 v 40 h -40 z m -40,0 h 40 v 40 h -40 z m -40,0 h 40 v 40 h -40 z m -40,0 h 40 v 40 h -40 z m -40,0 h 40 v 40 h -40 z m -40,0 h 40 v 40 h -40 z m -40,0 h 40 v 40 h -40 z m -40,0 h 40 v 40 h -40 z m -40,0 h 40 v 40 h -40 z m -40,0 h 40 v 40 h -40 z m -40,0 h 40 v 40 h -40 z m -40,0 h 40 v 40 h -40 z m -40,0 h 40 v 40 h -40 z m -40,0 h 40 v 40 h -40 z m -40,0 h 40 v 40 h -40 z m -40,0 h 40 v 40 h -40 z m -40,0 h 40 v 40 h -40 z m -40,0 h 40 v 40 h -40 z m -40,0 h 40 v 40 h -40 z m -40,0 h 40 v 40 h -40 z m -40,0 h 40 v 40 h -40 z m -40,0 h 40 v 40 h -40 z m -40,0 h 40 v 40 h -40 z m -40,0 h 40 v 40 h -40 z m -40,0 h 40 v 40 h -40 z m -40,0 h 40 v 40 h -40 z m -40,0 h 40 v 40 H 80 Z m 2680,-40 h 40 v 40 h -40 z m -40,0 h 40 v 40 h -40 z m -40,0 h 40 v 40 h -40 z m -40,0 h 40 v 40 h -40 z m -40,0 h 40 v 40 h -40 z m -40,0 h 40 v 40 h -40 z m -40,0 h 40 v 40 h -40 z m -40,0 h 40 v 40 h -40 z m -40,0 h 40 v 40 h -40 z m -40,0 h 40 v 40 h -40 z m -40,0 h 40 v 40 h -40 z m -40,0 h 40 v 40 h -40 z m -40,0 h 40 v 40 h -40 z m -40,0 h 40 v 40 h -40 z m -40,0 h 40 v 40 h -40 z m -40,0 h 40 v 40 h -40 z m -40,0 h 40 v 40 h -40 z m -40,0 h 40 v 40 h -40 z m -40,0 h 40 v 40 h -40 z m -40,0 h 40 v 40 h -40 z m -40,0 h 40 v 40 h -40 z m -40,0 h 40 v 40 h -40 z m -40,0 h 40 v 40 h -40 z m -40,0 h 40 v 40 h -40 z m -40,0 h 40 v 40 h -40 z m -40,0 h 40 v 40 h -40 z m -40,0 h 40 v 40 h -40 z m -40,0 h 40 v 40 h -40 z m -40,0 h 40 v 40 h -40 z m -40,0 h 40 v 40 h -40 z m -40,0 h 40 v 40 h -40 z m -40,0 h 40 v 40 h -40 z m -40,0 h 40 v 40 h -40 z m -40,0 h 40 v 40 h -40 z m -40,0 h 40 v 40 h -40 z m -40,0 h 40 v 40 h -40 z m -40,0 h 40 v 40 h -40 z m -40,0 h 40 v 40 h -40 z m -40,0 h 40 v 40 h -40 z m -40,0 h 40 v 40 h -40 z m -40,0 h 40 v 40 h -40 z m -40,0 h 40 v 40 h -40 z m -40,0 h 40 v 40 h -40 z m -40,0 h 40 v 40 h -40 z m -40,0 h 40 v 40 h -40 z m -40,0 h 40 v 40 h -40 z m -40,0 h 40 v 40 h -40 z m -40,0 h 40 v 40 h -40 z m -40,0 h 40 v 40 h -40 z m -40,0 h 40 v 40 h -40 z m -40,0 h 40 v 40 h -40 z m -40,0 h 40 v 40 h -40 z m -40,0 h 40 v 40 h -40 z m -40,0 h 40 v 40 h -40 z m -40,0 h 40 v 40 h -40 z m -40,0 h 40 v 40 h -40 z m -40,0 h 40 v 40 h -40 z m -40,0 h 40 v 40 h -40 z m -40,0 h 40 v 40 h -40 z m -40,0 h 40 v 40 h -40 z m -40,0 h 40 v 40 h -40 z m -40,0 h 40 v 40 h -40 z m -40,0 h 40 v 40 h -40 z m -40,0 h 40 v 40 h -40 z m -40,0 h 40 v 40 h -40 z m -40,0 h 40 v 40 h -40 z m -40,0 h 40 v 40 h -40 z m -40,0 h 40 v 40 H 80 Z m 2680,-40 h 40 v 40 h -40 z m -40,0 h 40 v 40 h -40 z m -40,0 h 40 v 40 h -40 z m -40,0 h 40 v 40 h -40 z m -40,0 h 40 v 40 h -40 z m -40,0 h 40 v 40 h -40 z m -40,0 h 40 v 40 h -40 z m -40,0 h 40 v 40 h -40 z m -40,0 h 40 v 40 h -40 z m -40,0 h 40 v 40 h -40 z m -40,0 h 40 v 40 h -40 z m -40,0 h 40 v 40 h -40 z m -40,0 h 40 v 40 h -40 z m -40,0 h 40 v 40 h -40 z m -40,0 h 40 v 40 h -40 z m -40,0 h 40 v 40 h -40 z m -40,0 h 40 v 40 h -40 z m -40,0 h 40 v 40 h -40 z m -40,0 h 40 v 40 h -40 z m -40,0 h 40 v 40 h -40 z m -40,0 h 40 v 40 h -40 z m -40,0 h 40 v 40 h -40 z m -40,0 h 40 v 40 h -40 z m -40,0 h 40 v 40 h -40 z m -40,0 h 40 v 40 h -40 z m -40,0 h 40 v 40 h -40 z m -40,0 h 40 v 40 h -40 z m -40,0 h 40 v 40 h -40 z m -40,0 h 40 v 40 h -40 z m -40,0 h 40 v 40 h -40 z m -40,0 h 40 v 40 h -40 z m -40,0 h 40 v 40 h -40 z m -40,0 h 40 v 40 h -40 z m -40,0 h 40 v 40 h -40 z m -40,0 h 40 v 40 h -40 z m -40,0 h 40 v 40 h -40 z m -40,0 h 40 v 40 h -40 z m -40,0 h 40 v 40 h -40 z m -40,0 h 40 v 40 h -40 z m -40,0 h 40 v 40 h -40 z m -40,0 h 40 v 40 h -40 z m -40,0 h 40 v 40 h -40 z m -40,0 h 40 v 40 h -40 z m -40,0 h 40 v 40 h -40 z m -40,0 h 40 v 40 h -40 z m -40,0 h 40 v 40 h -40 z m -40,0 h 40 v 40 h -40 z m -40,0 h 40 v 40 h -40 z m -40,0 h 40 v 40 h -40 z m -40,0 h 40 v 40 h -40 z m -40,0 h 40 v 40 h -40 z m -40,0 h 40 v 40 h -40 z m -40,0 h 40 v 40 h -40 z m -40,0 h 40 v 40 h -40 z m -40,0 h 40 v 40 h -40 z m -40,0 h 40 v 40 h -40 z m -40,0 h 40 v 40 h -40 z m -40,0 h 40 v 40 h -40 z m -40,0 h 40 v 40 h -40 z m -40,0 h 40 v 40 h -40 z m -40,0 h 40 v 40 h -40 z m -40,0 h 40 v 40 h -40 z m -40,0 h 40 v 40 h -40 z m -40,0 h 40 v 40 h -40 z m -40,0 h 40 v 40 h -40 z m -40,0 h 40 v 40 h -40 z m 2600,-40 h 40 v 40 h -40 z m -40,0 h 40 v 40 h -40 z m -40,0 h 40 v 40 h -40 z m -40,0 h 40 v 40 h -40 z m -40,0 h 40 v 40 h -40 z m -40,0 h 40 v 40 h -40 z m -40,0 h 40 v 40 h -40 z m -40,0 h 40 v 40 h -40 z m -40,0 h 40 v 40 h -40 z m -40,0 h 40 v 40 h -40 z m -40,0 h 40 v 40 h -40 z m -40,0 h 40 v 40 h -40 z m -40,0 h 40 v 40 h -40 z m -40,0 h 40 v 40 h -40 z m -40,0 h 40 v 40 h -40 z m -40,0 h 40 v 40 h -40 z m -40,0 h 40 v 40 h -40 z m -40,0 h 40 v 40 h -40 z m -40,0 h 40 v 40 h -40 z m -40,0 h 40 v 40 h -40 z m -40,0 h 40 v 40 h -40 z m -40,0 h 40 v 40 h -40 z m -40,0 h 40 v 40 h -40 z m -40,0 h 40 v 40 h -40 z m -40,0 h 40 v 40 h -40 z m -40,0 h 40 v 40 h -40 z m -40,0 h 40 v 40 h -40 z m -40,0 h 40 v 40 h -40 z m -40,0 h 40 v 40 h -40 z m -40,0 h 40 v 40 h -40 z m -40,0 h 40 v 40 h -40 z m -40,0 h 40 v 40 h -40 z m -40,0 h 40 v 40 h -40 z m -40,0 h 40 v 40 h -40 z m -40,0 h 40 v 40 h -40 z m -40,0 h 40 v 40 h -40 z m -40,0 h 40 v 40 h -40 z m -40,0 h 40 v 40 h -40 z m -40,0 h 40 v 40 h -40 z m -40,0 h 40 v 40 h -40 z m -40,0 h 40 v 40 h -40 z m -40,0 h 40 v 40 h -40 z m -40,0 h 40 v 40 h -40 z m -40,0 h 40 v 40 h -40 z m -40,0 h 40 v 40 h -40 z m -40,0 h 40 v 40 h -40 z m -40,0 h 40 v 40 h -40 z m -40,0 h 40 v 40 h -40 z m -40,0 h 40 v 40 h -40 z m -40,0 h 40 v 40 h -40 z m -40,0 h 40 v 40 h -40 z m -40,0 h 40 v 40 h -40 z m -40,0 h 40 v 40 h -40 z m -40,0 h 40 v 40 h -40 z m -40,0 h 40 v 40 h -40 z m -40,0 h 40 v 40 h -40 z m -40,0 h 40 v 40 h -40 z m -40,0 h 40 v 40 h -40 z m -40,0 h 40 v 40 h -40 z m -40,0 h 40 v 40 h -40 z m -40,0 h 40 v 40 h -40 z m -40,0 h 40 v 40 h -40 z m -40,0 h 40 v 40 h -40 z m -40,0 h 40 v 40 h -40 z m -40,0 h 40 v 40 h -40 z m -40,0 h 40 v 40 h -40 z m 2520,-40 h 40 v 40 h -40 z m -40,0 h 40 v 40 h -40 z m -40,0 h 40 v 40 h -40 z m -40,0 h 40 v 40 h -40 z m -40,0 h 40 v 40 h -40 z m -40,0 h 40 v 40 h -40 z m -40,0 h 40 v 40 h -40 z m -40,0 h 40 v 40 h -40 z m -40,0 h 40 v 40 h -40 z m -40,0 h 40 v 40 h -40 z m -40,0 h 40 v 40 h -40 z m -40,0 h 40 v 40 h -40 z m -40,0 h 40 v 40 h -40 z m -40,0 h 40 v 40 h -40 z m -40,0 h 40 v 40 h -40 z m -40,0 h 40 v 40 h -40 z m -40,0 h 40 v 40 h -40 z m -40,0 h 40 v 40 h -40 z m -40,0 h 40 v 40 h -40 z m -40,0 h 40 v 40 h -40 z m -40,0 h 40 v 40 h -40 z m -40,0 h 40 v 40 h -40 z m -40,0 h 40 v 40 h -40 z m -40,0 h 40 v 40 h -40 z m -40,0 h 40 v 40 h -40 z m -40,0 h 40 v 40 h -40 z m -40,0 h 40 v 40 h -40 z m -40,0 h 40 v 40 h -40 z m -40,0 h 40 v 40 h -40 z m -40,0 h 40 v 40 h -40 z m -40,0 h 40 v 40 h -40 z m -40,0 h 40 v 40 h -40 z m -40,0 h 40 v 40 h -40 z m -40,0 h 40 v 40 h -40 z m -40,0 h 40 v 40 h -40 z m -40,0 h 40 v 40 h -40 z m -40,0 h 40 v 40 h -40 z m -40,0 h 40 v 40 h -40 z m -40,0 h 40 v 40 h -40 z m -40,0 h 40 v 40 h -40 z m -40,0 h 40 v 40 h -40 z m -40,0 h 40 v 40 h -40 z m -40,0 h 40 v 40 h -40 z m -40,0 h 40 v 40 h -40 z m -40,0 h 40 v 40 h -40 z m -40,0 h 40 v 40 h -40 z m -40,0 h 40 v 40 h -40 z m -40,0 h 40 v 40 h -40 z m -40,0 h 40 v 40 h -40 z m -40,0 h 40 v 40 h -40 z m -40,0 h 40 v 40 h -40 z m -40,0 h 40 v 40 h -40 z m -40,0 h 40 v 40 h -40 z m -40,0 h 40 v 40 h -40 z m -40,0 h 40 v 40 h -40 z m -40,0 h 40 v 40 h -40 z m -40,0 h 40 v 40 h -40 z m -40,0 h 40 v 40 h -40 z m -40,0 h 40 v 40 h -40 z m -40,0 h 40 v 40 h -40 z m -40,0 h 40 v 40 h -40 z m -40,0 h 40 v 40 h -40 z m 2440,-40 h 40 v 40 h -40 z m -40,0 h 40 v 40 h -40 z m -40,0 h 40 v 40 h -40 z m -40,0 h 40 v 40 h -40 z m -40,0 h 40 v 40 h -40 z m -40,0 h 40 v 40 h -40 z m -40,0 h 40 v 40 h -40 z m -40,0 h 40 v 40 h -40 z m -40,0 h 40 v 40 h -40 z m -40,0 h 40 v 40 h -40 z m -40,0 h 40 v 40 h -40 z m -40,0 h 40 v 40 h -40 z m -40,0 h 40 v 40 h -40 z m -40,0 h 40 v 40 h -40 z m -40,0 h 40 v 40 h -40 z m -40,0 h 40 v 40 h -40 z m -40,0 h 40 v 40 h -40 z m -40,0 h 40 v 40 h -40 z m -40,0 h 40 v 40 h -40 z m -40,0 h 40 v 40 h -40 z m -40,0 h 40 v 40 h -40 z m -40,0 h 40 v 40 h -40 z m -40,0 h 40 v 40 h -40 z m -40,0 h 40 v 40 h -40 z m -40,0 h 40 v 40 h -40 z m -40,0 h 40 v 40 h -40 z m -40,0 h 40 v 40 h -40 z m -40,0 h 40 v 40 h -40 z m -40,0 h 40 v 40 h -40 z m -40,0 h 40 v 40 h -40 z m -40,0 h 40 v 40 h -40 z m -40,0 h 40 v 40 h -40 z m -40,0 h 40 v 40 h -40 z m -40,0 h 40 v 40 h -40 z m -40,0 h 40 v 40 h -40 z m -40,0 h 40 v 40 h -40 z m -40,0 h 40 v 40 h -40 z m -40,0 h 40 v 40 h -40 z m -40,0 h 40 v 40 h -40 z m -40,0 h 40 v 40 h -40 z m -40,0 h 40 v 40 h -40 z m -40,0 h 40 v 40 h -40 z m -40,0 h 40 v 40 h -40 z m -40,0 h 40 v 40 h -40 z m -40,0 h 40 v 40 h -40 z m -40,0 h 40 v 40 h -40 z m -40,0 h 40 v 40 h -40 z m -40,0 h 40 v 40 h -40 z m -40,0 h 40 v 40 h -40 z m -40,0 h 40 v 40 h -40 z m -40,0 h 40 v 40 h -40 z m -40,0 h 40 v 40 h -40 z m -40,0 h 40 v 40 h -40 z m -40,0 h 40 v 40 h -40 z m -40,0 h 40 v 40 h -40 z m -40,0 h 40 v 40 h -40 z m -40,0 h 40 v 40 h -40 z m -40,0 h 40 v 40 h -40 z m -40,0 h 40 v 40 h -40 z m -40,0 h 40 v 40 h -40 z m -40,0 h 40 v 40 h -40 z m -40,0 h 40 v 40 h -40 z m 2360,-40 h 40 v 40 h -40 z m -40,0 h 40 v 40 h -40 z m -40,0 h 40 v 40 h -40 z m -40,0 h 40 v 40 h -40 z m -40,0 h 40 v 40 h -40 z m -40,0 h 40 v 40 h -40 z m -40,0 h 40 v 40 h -40 z m -40,0 h 40 v 40 h -40 z m -40,0 h 40 v 40 h -40 z m -40,0 h 40 v 40 h -40 z m -40,0 h 40 v 40 h -40 z m -40,0 h 40 v 40 h -40 z m -40,0 h 40 v 40 h -40 z m -40,0 h 40 v 40 h -40 z m -40,0 h 40 v 40 h -40 z m -40,0 h 40 v 40 h -40 z m -40,0 h 40 v 40 h -40 z m -40,0 h 40 v 40 h -40 z m -40,0 h 40 v 40 h -40 z m -40,0 h 40 v 40 h -40 z m -40,0 h 40 v 40 h -40 z m -40,0 h 40 v 40 h -40 z m -40,0 h 40 v 40 h -40 z m -40,0 h 40 v 40 h -40 z m -40,0 h 40 v 40 h -40 z m -40,0 h 40 v 40 h -40 z m -40,0 h 40 v 40 h -40 z m -40,0 h 40 v 40 h -40 z m -40,0 h 40 v 40 h -40 z m -40,0 h 40 v 40 h -40 z m -40,0 h 40 v 40 h -40 z m -40,0 h 40 v 40 h -40 z m -40,0 h 40 v 40 h -40 z m -40,0 h 40 v 40 h -40 z m -40,0 h 40 v 40 h -40 z m -40,0 h 40 v 40 h -40 z m -40,0 h 40 v 40 h -40 z m -40,0 h 40 v 40 h -40 z m -40,0 h 40 v 40 h -40 z m -40,0 h 40 v 40 h -40 z m -40,0 h 40 v 40 h -40 z m -40,0 h 40 v 40 h -40 z m -40,0 h 40 v 40 h -40 z m -40,0 h 40 v 40 h -40 z m -40,0 h 40 v 40 h -40 z m -40,0 h 40 v 40 h -40 z m -40,0 h 40 v 40 h -40 z m -40,0 h 40 v 40 h -40 z m -40,0 h 40 v 40 h -40 z m -40,0 h 40 v 40 h -40 z m -40,0 h 40 v 40 h -40 z m -40,0 h 40 v 40 h -40 z m -40,0 h 40 v 40 h -40 z m -40,0 h 40 v 40 h -40 z m -40,0 h 40 v 40 h -40 z m -40,0 h 40 v 40 h -40 z m -40,0 h 40 v 40 h -40 z m -40,0 h 40 v 40 h -40 z m 2280,-40 h 40 v 40 h -40 z m -40,0 h 40 v 40 h -40 z m -40,0 h 40 v 40 h -40 z m -40,0 h 40 v 40 h -40 z m -40,0 h 40 v 40 h -40 z m -40,0 h 40 v 40 h -40 z m -40,0 h 40 v 40 h -40 z m -40,0 h 40 v 40 h -40 z m -40,0 h 40 v 40 h -40 z m -40,0 h 40 v 40 h -40 z m -40,0 h 40 v 40 h -40 z m -40,0 h 40 v 40 h -40 z m -40,0 h 40 v 40 h -40 z m -40,0 h 40 v 40 h -40 z m -40,0 h 40 v 40 h -40 z m -40,0 h 40 v 40 h -40 z m -40,0 h 40 v 40 h -40 z m -40,0 h 40 v 40 h -40 z m -40,0 h 40 v 40 h -40 z m -40,0 h 40 v 40 h -40 z m -40,0 h 40 v 40 h -40 z m -40,0 h 40 v 40 h -40 z m -40,0 h 40 v 40 h -40 z m -40,0 h 40 v 40 h -40 z m -40,0 h 40 v 40 h -40 z m -40,0 h 40 v 40 h -40 z m -40,0 h 40 v 40 h -40 z m -40,0 h 40 v 40 h -40 z m -40,0 h 40 v 40 h -40 z m -40,0 h 40 v 40 h -40 z m -40,0 h 40 v 40 h -40 z m -40,0 h 40 v 40 h -40 z m -40,0 h 40 v 40 h -40 z m -40,0 h 40 v 40 h -40 z m -40,0 h 40 v 40 h -40 z m -40,0 h 40 v 40 h -40 z m -40,0 h 40 v 40 h -40 z m -40,0 h 40 v 40 h -40 z m -40,0 h 40 v 40 h -40 z m -40,0 h 40 v 40 h -40 z m -40,0 h 40 v 40 h -40 z m -40,0 h 40 v 40 h -40 z m -40,0 h 40 v 40 h -40 z m -40,0 h 40 v 40 h -40 z m -40,0 h 40 v 40 h -40 z m -40,0 h 40 v 40 h -40 z m -40,0 h 40 v 40 h -40 z m -40,0 h 40 v 40 h -40 z m -40,0 h 40 v 40 h -40 z m -40,0 h 40 v 40 h -40 z m -40,0 h 40 v 40 h -40 z m -40,0 h 40 v 40 h -40 z m -40,0 h 40 v 40 h -40 z m -40,0 h 40 v 40 h -40 z m -40,0 h 40 v 40 h -40 z m -40,0 h 40 v 40 h -40 z m -40,0 h 40 v 40 h -40 z m -40,0 h 40 v 40 h -40 z m 2200,-40 h 40 v 40 h -40 z m -40,0 h 40 v 40 h -40 z m -40,0 h 40 v 40 h -40 z m -40,0 h 40 v 40 h -40 z m -40,0 h 40 v 40 h -40 z m -40,0 h 40 v 40 h -40 z m -40,0 h 40 v 40 h -40 z m -40,0 h 40 v 40 h -40 z m -40,0 h 40 v 40 h -40 z m -40,0 h 40 v 40 h -40 z m -40,0 h 40 v 40 h -40 z m -40,0 h 40 v 40 h -40 z m -40,0 h 40 v 40 h -40 z m -40,0 h 40 v 40 h -40 z m -40,0 h 40 v 40 h -40 z m -40,0 h 40 v 40 h -40 z m -40,0 h 40 v 40 h -40 z m -40,0 h 40 v 40 h -40 z m -40,0 h 40 v 40 h -40 z m -40,0 h 40 v 40 h -40 z m -40,0 h 40 v 40 h -40 z m -40,0 h 40 v 40 h -40 z m -40,0 h 40 v 40 h -40 z m -40,0 h 40 v 40 h -40 z m -40,0 h 40 v 40 h -40 z m -40,0 h 40 v 40 h -40 z m -40,0 h 40 v 40 h -40 z m -40,0 h 40 v 40 h -40 z m -40,0 h 40 v 40 h -40 z m -40,0 h 40 v 40 h -40 z m -40,0 h 40 v 40 h -40 z m -40,0 h 40 v 40 h -40 z m -40,0 h 40 v 40 h -40 z m -40,0 h 40 v 40 h -40 z m -40,0 h 40 v 40 h -40 z m -40,0 h 40 v 40 h -40 z m -40,0 h 40 v 40 h -40 z m -40,0 h 40 v 40 h -40 z m -40,0 h 40 v 40 h -40 z m -40,0 h 40 v 40 h -40 z m -40,0 h 40 v 40 h -40 z m -40,0 h 40 v 40 h -40 z m -40,0 h 40 v 40 h -40 z m -40,0 h 40 v 40 h -40 z m -40,0 h 40 v 40 h -40 z m -40,0 h 40 v 40 h -40 z m -40,0 h 40 v 40 h -40 z m -40,0 h 40 v 40 h -40 z m -40,0 h 40 v 40 h -40 z m -40,0 h 40 v 40 h -40 z m -40,0 h 40 v 40 h -40 z m -40,0 h 40 v 40 h -40 z m -40,0 h 40 v 40 h -40 z m -40,0 h 40 v 40 h -40 z m 2120,-40 h 40 v 40 h -40 z m -40,0 h 40 v 40 h -40 z m -40,0 h 40 v 40 h -40 z m -40,0 h 40 v 40 h -40 z m -40,0 h 40 v 40 h -40 z m -40,0 h 40 v 40 h -40 z m -40,0 h 40 v 40 h -40 z m -40,0 h 40 v 40 h -40 z m -40,0 h 40 v 40 h -40 z m -40,0 h 40 v 40 h -40 z m -40,0 h 40 v 40 h -40 z m -40,0 h 40 v 40 h -40 z m -40,0 h 40 v 40 h -40 z m -40,0 h 40 v 40 h -40 z m -40,0 h 40 v 40 h -40 z m -40,0 h 40 v 40 h -40 z m -40,0 h 40 v 40 h -40 z m -40,0 h 40 v 40 h -40 z m -40,0 h 40 v 40 h -40 z m -40,0 h 40 v 40 h -40 z m -40,0 h 40 v 40 h -40 z m -40,0 h 40 v 40 h -40 z m -40,0 h 40 v 40 h -40 z m -40,0 h 40 v 40 h -40 z m -40,0 h 40 v 40 h -40 z m -40,0 h 40 v 40 h -40 z m -40,0 h 40 v 40 h -40 z m -40,0 h 40 v 40 h -40 z m -40,0 h 40 v 40 h -40 z m -40,0 h 40 v 40 h -40 z m -40,0 h 40 v 40 h -40 z m -40,0 h 40 v 40 h -40 z m -40,0 h 40 v 40 h -40 z m -40,0 h 40 v 40 h -40 z m -40,0 h 40 v 40 h -40 z m -40,0 h 40 v 40 h -40 z m -40,0 h 40 v 40 h -40 z m -40,0 h 40 v 40 h -40 z m -40,0 h 40 v 40 h -40 z m -40,0 h 40 v 40 h -40 z m -40,0 h 40 v 40 h -40 z m -40,0 h 40 v 40 h -40 z m -40,0 h 40 v 40 h -40 z m -40,0 h 40 v 40 h -40 z m -40,0 h 40 v 40 h -40 z m -40,0 h 40 v 40 h -40 z m -40,0 h 40 v 40 h -40 z m -40,0 h 40 v 40 h -40 z m -40,0 h 40 v 40 h -40 z m -40,0 h 40 v 40 h -40 z m -40,0 h 40 v 40 h -40 z m -40,0 h 40 v 40 h -40 z m -40,0 h 40 v 40 h -40 z m -40,0 h 40 v 40 h -40 z m 1960,-40 h 40 v 40 h -40 z m -40,0 h 40 v 40 h -40 z m -40,0 h 40 v 40 h -40 z m -40,0 h 40 v 40 h -40 z m -40,0 h 40 v 40 h -40 z m -40,0 h 40 v 40 h -40 z m -40,0 h 40 v 40 h -40 z m -40,0 h 40 v 40 h -40 z m -40,0 h 40 v 40 h -40 z m -40,0 h 40 v 40 h -40 z m -40,0 h 40 v 40 h -40 z m -40,0 h 40 v 40 h -40 z m -40,0 h 40 v 40 h -40 z m -40,0 h 40 v 40 h -40 z m -40,0 h 40 v 40 h -40 z m -40,0 h 40 v 40 h -40 z m -40,0 h 40 v 40 h -40 z m -40,0 h 40 v 40 h -40 z m -40,0 h 40 v 40 h -40 z m -40,0 h 40 v 40 h -40 z m -40,0 h 40 v 40 h -40 z m -40,0 h 40 v 40 h -40 z m -40,0 h 40 v 40 h -40 z m -40,0 h 40 v 40 h -40 z m -40,0 h 40 v 40 h -40 z m -40,0 h 40 v 40 h -40 z m -40,0 h 40 v 40 h -40 z m -40,0 h 40 v 40 h -40 z m -40,0 h 40 v 40 h -40 z m -40,0 h 40 v 40 h -40 z m -40,0 h 40 v 40 h -40 z m -40,0 h 40 v 40 h -40 z m -40,0 h 40 v 40 h -40 z m -40,0 h 40 v 40 h -40 z m -40,0 h 40 v 40 h -40 z m -40,0 h 40 v 40 h -40 z m -40,0 h 40 v 40 h -40 z m -40,0 h 40 v 40 h -40 z m -40,0 h 40 v 40 h -40 z m -40,0 h 40 v 40 h -40 z m -40,0 h 40 v 40 h -40 z m -40,0 h 40 v 40 h -40 z m -40,0 h 40 v 40 h -40 z m -40,0 h 40 v 40 h -40 z m -40,0 h 40 v 40 h -40 z m -40,0 h 40 v 40 h -40 z m 1800,-40 h 40 v 40 h -40 z m -40,0 h 40 v 40 h -40 z m -40,0 h 40 v 40 h -40 z m -40,0 h 40 v 40 h -40 z m -40,0 h 40 v 40 h -40 z m -40,0 h 40 v 40 h -40 z m -40,0 h 40 v 40 h -40 z m -40,0 h 40 v 40 h -40 z m -40,0 h 40 v 40 h -40 z m -40,0 h 40 v 40 h -40 z m -40,0 h 40 v 40 h -40 z m -40,0 h 40 v 40 h -40 z m -40,0 h 40 v 40 h -40 z m -40,0 h 40 v 40 h -40 z m -40,0 h 40 v 40 h -40 z m -40,0 h 40 v 40 h -40 z m -40,0 h 40 v 40 h -40 z m -40,0 h 40 v 40 h -40 z m -40,0 h 40 v 40 h -40 z m -40,0 h 40 v 40 h -40 z m -40,0 h 40 v 40 h -40 z m -40,0 h 40 v 40 h -40 z m -40,0 h 40 v 40 h -40 z m -40,0 h 40 v 40 h -40 z m -40,0 h 40 v 40 h -40 z m -40,0 h 40 v 40 h -40 z m -40,0 h 40 v 40 h -40 z m -40,0 h 40 v 40 h -40 z m -40,0 h 40 v 40 h -40 z m -40,0 h 40 v 40 h -40 z m -40,0 h 40 v 40 h -40 z m -40,0 h 40 v 40 h -40 z m -40,0 h 40 v 40 h -40 z m -40,0 h 40 v 40 h -40 z m -40,0 h 40 v 40 h -40 z m -40,0 h 40 v 40 h -40 z m -40,0 h 40 v 40 h -40 z m -40,0 h 40 v 40 h -40 z m -40,0 h 40 v 40 h -40 z m -40,0 h 40 v 40 h -40 z m -40,0 h 40 v 40 h -40 z m -40,0 h 40 v 40 h -40 z m -40,0 h 40 v 40 h -40 z m -40,0 h 40 v 40 h -40 z m -40,0 h 40 v 40 h -40 z m -40,0 h 40 v 40 h -40 z m 1720,-40 h 40 v 40 h -40 z m -40,0 h 40 v 40 h -40 z m -40,0 h 40 v 40 h -40 z m -40,0 h 40 v 40 h -40 z m -40,0 h 40 v 40 h -40 z m -40,0 h 40 v 40 h -40 z m -40,0 h 40 v 40 h -40 z m -40,0 h 40 v 40 h -40 z m -40,0 h 40 v 40 h -40 z m -40,0 h 40 v 40 h -40 z m -40,0 h 40 v 40 h -40 z m -40,0 h 40 v 40 h -40 z m -40,0 h 40 v 40 h -40 z m -40,0 h 40 v 40 h -40 z m -40,0 h 40 v 40 h -40 z m -40,0 h 40 v 40 h -40 z m -40,0 h 40 v 40 h -40 z m -40,0 h 40 v 40 h -40 z m -40,0 h 40 v 40 h -40 z m -40,0 h 40 v 40 h -40 z m -40,0 h 40 v 40 h -40 z m -40,0 h 40 v 40 h -40 z m -40,0 h 40 v 40 h -40 z m -40,0 h 40 v 40 h -40 z m -40,0 h 40 v 40 h -40 z m -40,0 h 40 v 40 h -40 z m -40,0 h 40 v 40 h -40 z m -40,0 h 40 v 40 h -40 z m -40,0 h 40 v 40 h -40 z m -40,0 h 40 v 40 h -40 z m -40,0 h 40 v 40 h -40 z m -40,0 h 40 v 40 h -40 z m -40,0 h 40 v 40 h -40 z m -40,0 h 40 v 40 h -40 z m -40,0 h 40 v 40 h -40 z m -40,0 h 40 v 40 h -40 z m -40,0 h 40 v 40 h -40 z m -40,0 h 40 v 40 h -40 z m -40,0 h 40 v 40 h -40 z m -40,0 h 40 v 40 h -40 z m 1560,-40 h 40 v 40 h -40 z m -40,0 h 40 v 40 h -40 z m -40,0 h 40 v 40 h -40 z m -40,0 h 40 v 40 h -40 z m -40,0 h 40 v 40 h -40 z m -40,0 h 40 v 40 h -40 z m -40,0 h 40 v 40 h -40 z m -40,0 h 40 v 40 h -40 z m -40,0 h 40 v 40 h -40 z m -40,0 h 40 v 40 h -40 z m -40,0 h 40 v 40 h -40 z m -40,0 h 40 v 40 h -40 z m -40,0 h 40 v 40 h -40 z m -40,0 h 40 v 40 h -40 z m -40,0 h 40 v 40 h -40 z m -40,0 h 40 v 40 h -40 z m -40,0 h 40 v 40 h -40 z m -40,0 h 40 v 40 h -40 z m -40,0 h 40 v 40 h -40 z m -40,0 h 40 v 40 h -40 z m -40,0 h 40 v 40 h -40 z m -40,0 h 40 v 40 h -40 z m -40,0 h 40 v 40 h -40 z m -40,0 h 40 v 40 h -40 z m -40,0 h 40 v 40 h -40 z m -40,0 h 40 v 40 h -40 z m -40,0 h 40 v 40 h -40 z m -40,0 h 40 v 40 h -40 z m -40,0 h 40 v 40 h -40 z m -40,0 h 40 v 40 h -40 z m -40,0 h 40 v 40 h -40 z m -40,0 h 40 v 40 h -40 z m -40,0 h 40 v 40 h -40 z m -40,0 h 40 v 40 h -40 z m -40,0 h 40 v 40 h -40 z m -40,0 h 40 v 40 h -40 z m -40,0 h 40 v 40 h -40 z m -40,0 h 40 v 40 h -40 z m -40,0 h 40 v 40 h -40 z m -40,0 h 40 v 40 h -40 z m 1320,-40 h 40 v 40 h -40 z m -40,0 h 40 v 40 h -40 z m -40,0 h 40 v 40 h -40 z m -40,0 h 40 v 40 h -40 z m -40,0 h 40 v 40 h -40 z m -40,0 h 40 v 40 h -40 z m -40,0 h 40 v 40 h -40 z m -40,0 h 40 v 40 h -40 z m -40,0 h 40 v 40 h -40 z m -40,0 h 40 v 40 h -40 z m -40,0 h 40 v 40 h -40 z m -40,0 h 40 v 40 h -40 z m -40,0 h 40 v 40 h -40 z m -40,0 h 40 v 40 h -40 z m -40,0 h 40 v 40 h -40 z m -40,0 h 40 v 40 h -40 z m -40,0 h 40 v 40 h -40 z m -40,0 h 40 v 40 h -40 z m -40,0 h 40 v 40 h -40 z m -40,0 h 40 v 40 h -40 z m -40,0 h 40 v 40 h -40 z m -40,0 h 40 v 40 h -40 z m -40,0 h 40 v 40 h -40 z m -40,0 h 40 v 40 h -40 z m -40,0 h 40 v 40 h -40 z m -40,0 h 40 v 40 h -40 z m -40,0 h 40 v 40 h -40 z m -40,0 h 40 v 40 h -40 z m -40,0 h 40 v 40 h -40 z m -40,0 h 40 v 40 h -40 z m 1160,-40 h 40 v 40 h -40 z m -40,0 h 40 v 40 h -40 z m -40,0 h 40 v 40 h -40 z m -40,0 h 40 v 40 h -40 z m -40,0 h 40 v 40 h -40 z m -40,0 h 40 v 40 h -40 z m -40,0 h 40 v 40 h -40 z m -40,0 h 40 v 40 h -40 z m -40,0 h 40 v 40 h -40 z m -40,0 h 40 v 40 h -40 z m -40,0 h 40 v 40 h -40 z m -40,0 h 40 v 40 h -40 z m -40,0 h 40 v 40 h -40 z m -40,0 h 40 v 40 h -40 z m -40,0 h 40 v 40 h -40 z m -40,0 h 40 v 40 h -40 z m -40,0 h 40 v 40 h -40 z m -40,0 h 40 v 40 h -40 z m -40,0 h 40 v 40 h -40 z m -40,0 h 40 v 40 h -40 z m -40,0 h 40 v 40 h -40 z m -40,0 h 40 v 40 h -40 z m -40,0 h 40 v 40 h -40 z m -40,0 h 40 v 40 h -40 z m -40,0 h 40 v 40 h -40 z m -40,0 h 40 v 40 h -40 z m -40,0 h 40 v 40 h -40 z m -40,0 h 40 v 40 h -40 z m -40,0 h 40 v 40 h -40 z m -40,0 h 40 v 40 h -40 z m 1480,1560 h 40 v 40 h -40 z m -40,0 h 40 v 40 h -40 z m -40,0 h 40 v 40 h -40 z m -40,0 h 40 v 40 h -40 z m -40,0 h 40 v 40 h -40 z m -40,0 h 40 v 40 h -40 z m -280,0 h 40 v 40 h -40 z m -40,0 h 40 v 40 h -40 z m -720,0 h 40 v 40 h -40 z m 1240,-40 h 40 v 40 h -40 z m -40,0 h 40 v 40 h -40 z m -480,0 h 40 v 40 h -40 z m -720,0 h 40 v 40 h -40 z m 1080,-40 h 40 v 40 h -40 z m -1080,0 h 40 v 40 h -40 z m 1120,-40 h 40 v 40 h -40 z m -40,0 h 40 v 40 h -40 z m -160,0 h 40 v 40 h -40 z m -40,0 h 40 v 40 h -40 z m -880,0 h 40 v 40 h -40 z" />
</svg>
